csv/1/NewFile14.csv

X,CH1,CH2,CH3,CH4,Start,Increment,
Sequence,Volt,Volt,Volt,Volt,-1.200000e-01,2.000000e-04
0,1.76e-01,1.14e+00,9.68e-01,4.18e-01,
1,1.60e-01,1.14e+00,9.84e-01,4.14e-01,
2,1.76e-01,1.14e+00,9.76e-01,4.18e-01,
3,1.60e-01,1.14e+00,9.84e-01,4.14e-01,
4,1.68e-01,1.14e+00,9.80e-01,4.18e-01,
5,1.52e-01,1.14e+00,9.88e-01,4.14e-01,
6,1.68e-01,1.14e+00,9.84e-01,4.14e-01,
7,1.52e-01,1.14e+00,9.96e-01,4.18e-01,
8,1.68e-01,1.14e+00,9.88e-01,4.16e-01,
9,1.60e-01,1.14e+00,1.00e+00,4.13e-01,
10,1.60e-01,1.14e+00,9.92e-01,4.16e-01,
11,1.76e-01,1.14e+00,1.00e+00,4.13e-01,
12,1.60e-01,1.14e+00,1.00e+00,4.13e-01,
13,1.76e-01,1.14e+00,1.01e+00,4.18e-01,
14,1.76e-01,1.14e+00,1.00e+00,4.18e-01,
15,1.60e-01,1.14e+00,1.02e+00,4.13e-01,
16,1.76e-01,1.14e+00,1.01e+00,4.12e-01,
17,1.60e-01,1.14e+00,1.02e+00,4.18e-01,
18,1.76e-01,1.14e+00,1.02e+00,4.17e-01,
19,1.60e-01,1.14e+00,1.03e+00,4.13e-01,
20,1.60e-01,1.14e+00,1.02e+00,4.16e-01,
21,1.68e-01,1.14e+00,1.04e+00,4.12e-01,
22,1.60e-01,1.14e+00,1.03e+00,4.12e-01,
23,1.68e-01,1.14e+00,1.04e+00,4.16e-01,
24,1.68e-01,1.14e+00,1.04e+00,4.12e-01,
25,1.60e-01,1.14e+00,1.05e+00,4.18e-01,
26,1.60e-01,1.14e+00,1.05e+00,4.16e-01,
27,1.76e-01,1.14e+00,1.06e+00,5.46e-01,
28,1.60e-01,1.14e+00,1.05e+00,5.46e-01,
29,1.76e-01,1.14e+00,1.06e+00,5.46e-01,
30,1.68e-01,1.14e+00,1.06e+00,5.46e-01,
31,1.76e-01,1.14e+00,1.08e+00,5.46e-01,
32,1.76e-01,1.14e+00,1.07e+00,5.46e-01,
33,1.60e-01,1.14e+00,1.08e+00,5.46e-01,
34,1.76e-01,1.14e+00,1.08e+00,5.46e-01,
35,1.60e-01,1.14e+00,1.09e+00,5.46e-01,
36,1.76e-01,1.14e+00,1.09e+00,5.46e-01,
37,1.52e-01,1.14e+00,1.10e+00,5.46e-01,
38,1.68e-01,1.14e+00,1.10e+00,5.46e-01,
39,1.52e-01,1.14e+00,1.11e+00,5.46e-01,
40,1.68e-01,1.14e+00,1.10e+00,5.46e-01,
41,1.52e-01,1.14e+00,1.12e+00,5.46e-01,
42,1.68e-01,1.14e+00,1.11e+00,5.46e-01,
43,1.60e-01,1.14e+00,1.12e+00,5.46e-01,
44,1.60e-01,1.14e+00,1.12e+00,5.46e-01,
45,1.76e-01,1.14e+00,1.14e+00,5.46e-01,
46,1.76e-01,1.14e+00,1.13e+00,5.46e-01,
47,1.60e-01,1.14e+00,1.14e+00,5.46e-01,
48,1.76e-01,1.14e+00,1.14e+00,5.46e-01,
49,1.68e-01,1.14e+00,1.15e+00,5.46e-01,
50,1.76e-01,1.14e+00,1.14e+00,5.46e-01,
51,1.60e-01,1.14e+00,1.16e+00,5.46e-01,
52,1.76e-01,1.14e+00,1.16e+00,5.46e-01,
53,1.60e-01,1.14e+00,1.17e+00,5.46e-01,
54,1.68e-01,1.14e+00,1.16e+00,5.46e-01,
55,1.60e-01,1.14e+00,1.18e+00,5.46e-01,
56,1.60e-01,1.14e+00,1.17e+00,5.46e-01,
57,1.68e-01,1.14e+00,1.19e+00,5.46e-01,
58,1.60e-01,1.14e+00,1.18e+00,5.46e-01,
59,1.76e-01,1.14e+00,1.19e+00,5.46e-01,
60,1.76e-01,1.14e+00,1.19e+00,5.46e-01,
61,1.60e-01,1.14e+00,1.20e+00,5.46e-01,
62,1.76e-01,1.14e+00,1.20e+00,5.46e-01,
63,1.60e-01,1.14e+00,1.21e+00,5.46e-01,
64,1.76e-01,1.14e+00,1.20e+00,5.46e-01,
65,1.60e-01,1.14e+00,1.22e+00,5.46e-01,
66,1.76e-01,1.14e+00,1.21e+00,5.46e-01,
67,1.68e-01,1.14e+00,1.22e+00,5.46e-01,
68,1.76e-01,1.14e+00,1.22e+00,5.46e-01,
69,1.60e-01,1.14e+00,1.23e+00,5.46e-01,
70,1.68e-01,1.14e+00,1.22e+00,5.46e-01,
71,1.60e-01,1.14e+00,1.24e+00,5.46e-01,
72,1.60e-01,1.14e+00,1.24e+00,5.46e-01,
73,1.68e-01,1.14e+00,1.25e+00,5.46e-01,
74,1.68e-01,1.14e+00,1.24e+00,5.46e-01,
75,1.60e-01,1.14e+00,1.25e+00,5.46e-01,
76,1.60e-01,1.14e+00,1.25e+00,5.46e-01,
77,1.76e-01,1.14e+00,1.26e+00,5.46e-01,
78,1.76e-01,1.14e+00,1.26e+00,5.46e-01,
79,1.68e-01,1.14e+00,1.27e+00,5.46e-01,
80,1.76e-01,1.14e+00,1.26e+00,5.46e-01,
81,1.68e-01,1.14e+00,1.28e+00,5.02e-01,
82,1.76e-01,1.14e+00,1.27e+00,5.00e-01,
83,1.68e-01,1.14e+00,1.28e+00,3.42e-01,
84,1.76e-01,1.14e+00,1.27e+00,3.42e-01,
85,1.68e-01,1.14e+00,1.29e+00,3.42e-01,
86,1.76e-01,1.14e+00,1.28e+00,3.42e-01,
87,1.60e-01,1.14e+00,1.30e+00,3.42e-01,
88,1.68e-01,1.14e+00,1.29e+00,3.42e-01,
89,1.60e-01,1.14e+00,1.30e+00,3.42e-01,
90,1.60e-01,1.14e+00,1.29e+00,3.42e-01,
91,1.76e-01,1.14e+00,1.30e+00,3.42e-01,
92,1.60e-01,1.14e+00,1.30e+00,3.42e-01,
93,1.76e-01,1.14e+00,1.31e+00,3.42e-01,
94,1.76e-01,1.14e+00,1.31e+00,3.42e-01,
95,1.60e-01,1.14e+00,1.30e+00,3.42e-01,
96,1.76e-01,1.14e+00,1.32e+00,3.42e-01,
97,1.68e-01,1.14e+00,1.31e+00,3.42e-01,
98,1.76e-01,1.14e+00,1.31e+00,3.42e-01,
99,1.68e-01,1.14e+00,1.32e+00,3.42e-01,
100,1.76e-01,1.14e+00,1.32e+00,3.42e-01,
101,1.68e-01,1.14e+00,1.32e+00,3.42e-01,
102,1.76e-01,1.14e+00,1.32e+00,3.42e-01,
103,1.60e-01,1.14e+00,1.33e+00,3.42e-01,
104,1.68e-01,1.14e+00,1.32e+00,3.42e-01,
105,1.60e-01,1.14e+00,1.33e+00,3.42e-01,
106,1.68e-01,1.14e+00,1.32e+00,3.42e-01,
107,1.60e-01,1.14e+00,1.34e+00,3.78e-01,
108,1.60e-01,1.14e+00,1.33e+00,3.78e-01,
109,1.76e-01,1.14e+00,1.34e+00,4.14e-01,
110,1.76e-01,1.14e+00,1.33e+00,4.14e-01,
111,1.60e-01,1.14e+00,1.34e+00,4.41e-01,
112,1.76e-01,1.14e+00,1.34e+00,4.41e-01,
113,1.60e-01,1.14e+00,1.33e+00,4.62e-01,
114,1.76e-01,1.14e+00,1.33e+00,4.61e-01,
115,1.60e-01,1.14e+00,1.34e+00,5.46e-01,
116,1.76e-01,1.14e+00,1.34e+00,5.46e-01,
117,1.68e-01,1.14e+00,1.34e+00,5.46e-01,
118,1.76e-01,1.14e+00,1.34e+00,5.46e-01,
119,1.60e-01,1.14e+00,1.34e+00,5.46e-01,
120,1.60e-01,1.14e+00,1.34e+00,5.46e-01,
121,1.68e-01,1.14e+00,1.34e+00,5.46e-01,
122,1.68e-01,1.14e+00,1.34e+00,5.46e-01,
123,1.52e-01,1.14e+00,1.34e+00,5.46e-01,
124,1.68e-01,1.14e+00,1.34e+00,5.46e-01,
125,1.60e-01,1.14e+00,1.34e+00,5.46e-01,
126,1.60e-01,1.14e+00,1.34e+00,5.46e-01,
127,1.76e-01,1.14e+00,1.34e+00,4.54e-01,
128,1.76e-01,1.14e+00,1.34e+00,4.55e-01,
129,1.60e-01,1.14e+00,1.35e+00,4.42e-01,
130,1.76e-01,1.14e+00,1.34e+00,4.43e-01,
131,1.68e-01,1.14e+00,1.33e+00,4.33e-01,
132,1.76e-01,1.14e+00,1.34e+00,4.35e-01,
133,1.68e-01,1.14e+00,1.33e+00,4.24e-01,
134,1.76e-01,1.14e+00,1.33e+00,4.27e-01,
135,1.68e-01,1.14e+00,1.34e+00,4.18e-01,
136,1.76e-01,1.14e+00,1.34e+00,4.19e-01,
137,1.60e-01,1.14e+00,1.33e+00,4.11e-01,
138,1.68e-01,1.14e+00,1.34e+00,4.14e-01,
139,1.52e-01,1.14e+00,1.32e+00,4.08e-01,
140,1.68e-01,1.14e+00,1.33e+00,4.11e-01,
141,1.60e-01,1.14e+00,1.32e+00,4.03e-01,
142,1.60e-01,1.14e+00,1.33e+00,4.06e-01,
143,1.76e-01,1.14e+00,1.32e+00,4.03e-01,
144,1.60e-01,1.14e+00,1.32e+00,4.06e-01,
145,1.76e-01,1.14e+00,1.31e+00,4.02e-01,
146,1.76e-01,1.14e+00,1.32e+00,4.02e-01,
147,1.60e-01,1.14e+00,1.31e+00,4.06e-01,
148,1.76e-01,1.14e+00,1.32e+00,4.06e-01,
149,1.60e-01,1.14e+00,1.30e+00,4.02e-01,
150,1.76e-01,1.14e+00,1.31e+00,4.03e-01,
151,1.68e-01,1.14e+00,1.30e+00,4.08e-01,
152,1.76e-01,1.14e+00,1.30e+00,4.06e-01,
153,1.60e-01,1.14e+00,1.29e+00,4.10e-01,
154,1.68e-01,1.14e+00,1.30e+00,4.10e-01,
155,1.52e-01,1.14e+00,1.29e+00,4.06e-01,
156,1.68e-01,1.14e+00,1.29e+00,4.08e-01,
157,1.52e-01,1.14e+00,1.28e+00,4.14e-01,
158,1.60e-01,1.14e+00,1.28e+00,4.14e-01,
159,1.68e-01,1.14e+00,1.27e+00,4.10e-01,
160,1.60e-01,1.14e+00,1.28e+00,4.12e-01,
161,1.76e-01,1.14e+00,1.27e+00,4.15e-01,
162,1.60e-01,1.14e+00,1.27e+00,4.12e-01,
163,1.76e-01,1.14e+00,1.26e+00,4.17e-01,
164,1.76e-01,1.14e+00,1.27e+00,4.14e-01,
165,1.60e-01,1.14e+00,1.25e+00,4.18e-01,
166,1.68e-01,1.14e+00,1.26e+00,4.18e-01,
167,1.76e-01,1.14e+00,1.25e+00,4.14e-01,
168,1.60e-01,1.14e+00,1.25e+00,4.14e-01,
169,1.76e-01,1.14e+00,1.24e+00,4.18e-01,
170,1.76e-01,1.14e+00,1.25e+00,4.15e-01,
171,1.60e-01,1.14e+00,1.23e+00,4.20e-01,
172,1.68e-01,1.14e+00,1.24e+00,4.20e-01,
173,1.52e-01,1.14e+00,1.22e+00,4.17e-01,
174,1.60e-01,1.14e+00,1.23e+00,4.18e-01,
175,1.68e-01,1.14e+00,1.22e+00,4.23e-01,
176,1.68e-01,1.14e+00,1.22e+00,4.23e-01,
177,1.60e-01,1.14e+00,1.21e+00,4.20e-01,
178,1.68e-01,1.14e+00,1.21e+00,4.20e-01,
179,1.60e-01,1.14e+00,1.20e+00,4.26e-01,
180,1.60e-01,1.14e+00,1.21e+00,4.27e-01,
181,1.76e-01,1.14e+00,1.19e+00,4.22e-01,
182,1.60e-01,1.14e+00,1.20e+00,4.25e-01,
183,1.76e-01,1.14e+00,1.19e+00,4.30e-01,
184,1.60e-01,1.14e+00,1.19e+00,4.28e-01,
185,1.76e-01,1.14e+00,1.18e+00,4.33e-01,
186,1.76e-01,1.14e+00,1.18e+00,4.31e-01,
187,1.60e-01,1.14e+00,1.17e+00,4.37e-01,
188,1.68e-01,1.14e+00,1.18e+00,4.35e-01,
189,1.52e-01,1.14e+00,1.16e+00,4.40e-01,
190,1.68e-01,1.14e+00,1.17e+00,4.38e-01,
191,1.60e-01,1.14e+00,1.16e+00,4.44e-01,
192,1.68e-01,1.14e+00,1.16e+00,4.42e-01,
193,1.60e-01,1.14e+00,1.15e+00,4.46e-01,
194,1.60e-01,1.14e+00,1.16e+00,4.42e-01,
195,1.76e-01,1.14e+00,1.14e+00,4.47e-01,
196,1.60e-01,1.14e+00,1.15e+00,4.44e-01,
197,1.76e-01,1.14e+00,1.14e+00,4.51e-01,
198,1.76e-01,1.14e+00,1.14e+00,4.48e-01,
199,1.68e-01,1.14e+00,1.13e+00,4.54e-01,
200,1.76e-01,1.14e+00,1.14e+00,4.51e-01,
201,1.68e-01,1.14e+00,1.12e+00,4.55e-01,
202,1.76e-01,1.14e+00,1.13e+00,4.54e-01,
203,1.68e-01,1.14e+00,1.12e+00,4.50e-01,
204,1.76e-01,1.14e+00,1.12e+00,4.52e-01,
205,1.52e-01,1.14e+00,1.10e+00,4.46e-01,
206,1.68e-01,1.14e+00,1.11e+00,4.50e-01,
207,1.52e-01,1.14e+00,1.10e+00,4.44e-01,
208,1.68e-01,1.14e+00,1.10e+00,4.47e-01,
209,1.52e-01,1.14e+00,1.09e+00,4.42e-01,
210,1.68e-01,1.14e+00,1.10e+00,4.42e-01,
211,1.52e-01,1.14e+00,1.09e+00,4.45e-01,
212,1.68e-01,1.14e+00,1.09e+00,4.42e-01,
213,1.60e-01,1.14e+00,1.08e+00,4.46e-01,
214,1.60e-01,1.14e+00,1.08e+00,4.42e-01,
215,1.76e-01,1.14e+00,1.07e+00,4.47e-01,
216,1.76e-01,1.14e+00,1.08e+00,4.44e-01,
217,1.60e-01,1.14e+00,1.07e+00,4.49e-01,
218,1.76e-01,1.14e+00,1.08e+00,4.46e-01,
219,1.68e-01,1.14e+00,1.06e+00,4.49e-01,
220,1.76e-01,1.14e+00,1.06e+00,4.46e-01,
221,1.60e-01,1.14e+00,1.05e+00,4.50e-01,
222,1.68e-01,1.14e+00,1.06e+00,4.46e-01,
223,1.60e-01,1.14e+00,1.05e+00,4.50e-01,
224,1.68e-01,1.14e+00,1.06e+00,4.48e-01,
225,1.52e-01,1.14e+00,1.04e+00,4.46e-01,
226,1.68e-01,1.14e+00,1.05e+00,4.46e-01,
227,1.52e-01,1.14e+00,1.04e+00,4.50e-01,
228,1.68e-01,1.14e+00,1.04e+00,4.48e-01,
229,1.60e-01,1.14e+00,1.03e+00,4.52e-01,
230,1.60e-01,1.14e+00,1.04e+00,4.52e-01,
231,1.76e-01,1.14e+00,1.03e+00,4.48e-01,
232,1.60e-01,1.14e+00,1.03e+00,4.50e-01,
233,1.76e-01,1.14e+00,1.02e+00,4.47e-01,
234,1.76e-01,1.14e+00,1.03e+00,4.50e-01,
235,1.60e-01,1.14e+00,1.02e+00,4.46e-01,
236,1.76e-01,1.14e+00,1.02e+00,4.46e-01,
237,1.60e-01,1.14e+00,1.01e+00,4.50e-01,
238,1.76e-01,1.14e+00,1.02e+00,4.48e-01,
239,1.60e-01,1.14e+00,1.01e+00,4.51e-01,
240,1.68e-01,1.14e+00,1.01e+00,4.52e-01,
241,1.60e-01,1.14e+00,1.00e+00,4.48e-01,
242,1.68e-01,1.14e+00,1.01e+00,4.51e-01,
243,1.52e-01,1.14e+00,1.00e+00,4.46e-01,
244,1.68e-01,1.14e+00,1.01e+00,4.49e-01,
245,1.60e-01,1.14e+00,9.96e-01,4.43e-01,
246,1.60e-01,1.14e+00,1.00e+00,4.47e-01,
247,1.76e-01,1.14e+00,9.88e-01,4.43e-01,
248,1.60e-01,1.14e+00,9.96e-01,4.46e-01,
249,1.76e-01,1.14e+00,9.84e-01,4.42e-01,
250,1.76e-01,1.14e+00,9.92e-01,4.46e-01,
251,1.60e-01,1.14e+00,9.80e-01,4.42e-01,
252,1.76e-01,1.14e+00,9.88e-01,4.42e-01,
253,1.60e-01,1.14e+00,9.80e-01,4.46e-01,
254,1.60e-01,1.14e+00,9.84e-01,4.42e-01,
255,1.76e-01,1.14e+00,9.72e-01,4.46e-01,
256,1.60e-01,1.14e+00,9.80e-01,4.46e-01,
257,1.68e-01,1.14e+00,9.68e-01,4.42e-01,
258,1.68e-01,1.14e+00,9.76e-01,4.42e-01,
259,1.60e-01,1.14e+00,9.68e-01,4.46e-01,
260,1.68e-01,1.14e+00,9.72e-01,4.42e-01,
261,1.60e-01,1.14e+00,9.64e-01,4.47e-01,
262,1.68e-01,1.14e+00,9.72e-01,4.46e-01,
263,1.60e-01,1.14e+00,9.60e-01,4.49e-01,
264,1.60e-01,1.14e+00,9.68e-01,4.43e-01,
265,1.76e-01,1.14e+00,9.60e-01,4.49e-01,
266,1.76e-01,1.14e+00,9.64e-01,4.49e-01,
267,1.68e-01,1.14e+00,9.56e-01,4.43e-01,
268,1.68e-01,1.14e+00,9.56e-01,4.44e-01,
269,1.76e-01,1.14e+00,9.64e-01,4.49e-01,
270,1.76e-01,1.14e+00,9.56e-01,4.44e-01,
271,1.68e-01,1.14e+00,9.64e-01,4.49e-01,
272,1.76e-01,1.14e+00,9.48e-01,4.47e-01,
273,1.52e-01,1.14e+00,9.60e-01,4.43e-01,
274,1.60e-01,1.14e+00,9.60e-01,4.43e-01,
275,1.68e-01,1.14e+00,9.44e-01,4.47e-01,
276,1.68e-01,1.14e+00,9.52e-01,4.47e-01,
277,1.60e-01,1.14e+00,9.44e-01,4.42e-01,
278,1.60e-01,1.14e+00,9.44e-01,4.42e-01,
279,1.68e-01,1.14e+00,9.52e-01,4.47e-01,
280,1.68e-01,1.14e+00,9.48e-01,4.47e-01,
281,1.60e-01,1.14e+00,9.40e-01,4.43e-01,
282,1.60e-01,1.14e+00,9.48e-01,4.42e-01,
283,1.76e-01,1.14e+00,9.40e-01,4.46e-01,
284,1.60e-01,1.14e+00,9.48e-01,4.47e-01,
285,1.76e-01,1.14e+00,9.40e-01,4.44e-01,
286,1.76e-01,1.14e+00,9.48e-01,4.43e-01,
287,1.60e-01,1.14e+00,9.40e-01,4.47e-01,
288,1.76e-01,1.14e+00,9.48e-01,4.47e-01,
289,1.60e-01,1.14e+00,9.36e-01,4.43e-01,
290,1.68e-01,1.14e+00,9.44e-01,4.43e-01,
291,1.52e-01,1.14e+00,9.36e-01,4.47e-01,
292,1.68e-01,1.14e+00,9.36e-01,4.46e-01,
293,1.52e-01,1.14e+00,9.44e-01,4.42e-01,
294,1.68e-01,1.14e+00,9.36e-01,4.44e-01,
295,1.52e-01,1.14e+00,9.44e-01,4.40e-01,
296,1.68e-01,1.14e+00,9.36e-01,4.40e-01,
297,1.60e-01,1.14e+00,9.44e-01,4.44e-01,
298,1.60e-01,1.14e+00,9.36e-01,4.45e-01,
299,1.76e-01,1.14e+00,9.44e-01,4.39e-01,
300,1.60e-01,1.14e+00,9.36e-01,4.39e-01,
301,1.76e-01,1.14e+00,9.44e-01,4.44e-01,
302,1.76e-01,1.14e+00,9.40e-01,4.39e-01,
303,1.60e-01,1.14e+00,9.36e-01,4.44e-01,
304,1.76e-01,1.14e+00,9.36e-01,4.44e-01,
305,1.60e-01,1.14e+00,9.44e-01,4.39e-01,
306,1.60e-01,1.14e+00,9.36e-01,4.42e-01,
307,1.76e-01,1.14e+00,9.44e-01,4.38e-01,
308,1.68e-01,1.14e+00,9.36e-01,4.39e-01,
309,1.52e-01,1.14e+00,9.44e-01,4.45e-01,
310,1.68e-01,1.14e+00,9.44e-01,4.44e-01,
311,1.52e-01,1.14e+00,9.36e-01,4.38e-01,
312,1.68e-01,1.14e+00,9.44e-01,4.38e-01,
313,1.60e-01,1.14e+00,9.36e-01,4.42e-01,
314,1.68e-01,1.14e+00,9.44e-01,4.40e-01,
315,1.60e-01,1.14e+00,9.36e-01,4.36e-01,
316,1.52e-01,1.14e+00,9.44e-01,4.38e-01,
317,1.68e-01,1.14e+00,9.36e-01,4.34e-01,
318,1.68e-01,1.14e+00,9.40e-01,4.35e-01,
319,1.60e-01,1.14e+00,9.48e-01,4.31e-01,
320,1.68e-01,1.14e+00,9.40e-01,4.31e-01,
321,1.60e-01,1.14e+00,9.48e-01,4.34e-01,
322,1.68e-01,1.14e+00,9.40e-01,4.34e-01,
323,1.60e-01,1.14e+00,9.48e-01,4.27e-01,
324,1.68e-01,1.14e+00,9.44e-01,4.30e-01,
325,1.52e-01,1.14e+00,9.52e-01,4.26e-01,
326,1.68e-01,1.14e+00,9.52e-01,4.30e-01,
327,1.52e-01,1.14e+00,9.44e-01,4.25e-01,
328,1.68e-01,1.14e+00,9.52e-01,4.28e-01,
329,1.52e-01,1.14e+00,9.44e-01,4.22e-01,
330,1.68e-01,1.14e+00,9.48e-01,4.25e-01,
331,1.60e-01,1.14e+00,9.60e-01,4.21e-01,
332,1.68e-01,1.14e+00,9.52e-01,4.23e-01,
333,1.60e-01,1.14e+00,9.64e-01,4.18e-01,
334,1.60e-01,1.14e+00,9.56e-01,4.21e-01,
335,1.76e-01,1.14e+00,9.64e-01,4.17e-01,
336,1.60e-01,1.14e+00,9.60e-01,4.18e-01,
337,1.76e-01,1.14e+00,9.68e-01,4.14e-01,
338,1.76e-01,1.14e+00,9.60e-01,4.18e-01,
339,1.60e-01,1.14e+00,9.72e-01,4.14e-01,
340,1.60e-01,1.14e+00,9.64e-01,4.14e-01,
341,1.76e-01,1.14e+00,9.72e-01,4.16e-01,
342,1.68e-01,1.14e+00,9.76e-01,4.18e-01,
343,1.52e-01,1.14e+00,9.68e-01,4.13e-01,
344,1.68e-01,1.14e+00,9.72e-01,4.13e-01,
345,1.52e-01,1.14e+00,9.84e-01,4.16e-01,
346,1.68e-01,1.14e+00,9.72e-01,4.16e-01,
347,1.52e-01,1.14e+00,9.88e-01,4.12e-01,
348,1.68e-01,1.14e+00,9.80e-01,4.16e-01,
349,1.52e-01,1.14e+00,9.92e-01,4.12e-01,
350,1.68e-01,1.14e+00,9.84e-01,4.13e-01,
351,1.60e-01,1.14e+00,9.96e-01,4.16e-01,
352,1.60e-01,1.14e+00,9.88e-01,4.13e-01,
353,1.68e-01,1.14e+00,1.00e+00,4.17e-01,
354,1.60e-01,1.14e+00,1.00e+00,4.16e-01,
355,1.76e-01,1.14e+00,1.01e+00,4.13e-01,
356,1.76e-01,1.14e+00,1.00e+00,4.14e-01,
357,1.52e-01,1.14e+00,1.02e+00,4.18e-01,
358,1.68e-01,1.14e+00,1.01e+00,4.18e-01,
359,1.52e-01,1.14e+00,1.02e+00,4.13e-01,
360,1.68e-01,1.14e+00,1.01e+00,4.14e-01,
361,1.52e-01,1.14e+00,1.03e+00,4.18e-01,
362,1.68e-01,1.14e+00,1.02e+00,4.18e-01,
363,1.52e-01,1.14e+00,1.03e+00,4.14e-01,
364,1.68e-01,1.14e+00,1.03e+00,4.16e-01,
365,1.52e-01,1.14e+00,1.04e+00,4.12e-01,
366,1.68e-01,1.14e+00,1.03e+00,4.13e-01,
367,1.60e-01,1.14e+00,1.05e+00,4.16e-01,
368,1.68e-01,1.14e+00,1.04e+00,4.14e-01,
369,1.60e-01,1.14e+00,1.06e+00,4.20e-01,
370,1.60e-01,1.14e+00,1.05e+00,4.18e-01,
371,1.76e-01,1.14e+00,1.06e+00,5.46e-01,
372,1.76e-01,1.14e+00,1.06e+00,5.46e-01,
373,1.60e-01,1.14e+00,1.07e+00,5.46e-01,
374,1.76e-01,1.14e+00,1.06e+00,5.46e-01,
375,1.60e-01,1.14e+00,1.08e+00,5.46e-01,
376,1.68e-01,1.14e+00,1.07e+00,5.46e-01,
377,1.52e-01,1.14e+00,1.08e+00,5.46e-01,
378,1.68e-01,1.14e+00,1.08e+00,5.46e-01,
379,1.52e-01,1.14e+00,1.10e+00,5.46e-01,
380,1.68e-01,1.14e+00,1.09e+00,5.46e-01,
381,1.52e-01,1.14e+00,1.10e+00,5.46e-01,
382,1.68e-01,1.14e+00,1.10e+00,5.46e-01,
383,1.52e-01,1.14e+00,1.11e+00,5.46e-01,
384,1.68e-01,1.14e+00,1.11e+00,5.46e-01,
385,1.52e-01,1.14e+00,1.12e+00,5.46e-01,
386,1.68e-01,1.14e+00,1.11e+00,5.46e-01,
387,1.52e-01,1.14e+00,1.13e+00,5.46e-01,
388,1.60e-01,1.14e+00,1.12e+00,5.46e-01,
389,1.76e-01,1.14e+00,1.14e+00,5.46e-01,
390,1.60e-01,1.14e+00,1.13e+00,5.46e-01,
391,1.76e-01,1.14e+00,1.14e+00,5.46e-01,
392,1.68e-01,1.14e+00,1.14e+00,5.46e-01,
393,1.52e-01,1.14e+00,1.15e+00,5.46e-01,
394,1.52e-01,1.14e+00,1.15e+00,5.46e-01,
395,1.68e-01,1.14e+00,1.16e+00,5.46e-01,
396,1.68e-01,1.14e+00,1.16e+00,5.46e-01,
397,1.52e-01,1.14e+00,1.17e+00,5.46e-01,
398,1.68e-01,1.14e+00,1.16e+00,5.46e-01,
399,1.52e-01,1.14e+00,1.18e+00,5.46e-01,
400,1.68e-01,1.14e+00,1.18e+00,5.46e-01,
401,1.52e-01,1.14e+00,1.19e+00,5.46e-01,
402,1.60e-01,1.14e+00,1.18e+00,5.46e-01,
403,1.68e-01,1.14e+00,1.20e+00,5.46e-01,
404,1.60e-01,1.14e+00,1.19e+00,5.46e-01,
405,1.76e-01,1.14e+00,1.20e+00,5.46e-01,
406,1.76e-01,1.14e+00,1.20e+00,5.46e-01,
407,1.60e-01,1.14e+00,1.21e+00,5.46e-01,
408,1.76e-01,1.14e+00,1.20e+00,5.46e-01,
409,1.60e-01,1.14e+00,1.22e+00,5.46e-01,
410,1.76e-01,1.14e+00,1.21e+00,5.46e-01,
411,1.60e-01,1.14e+00,1.23e+00,5.46e-01,
412,1.68e-01,1.14e+00,1.22e+00,5.46e-01,
413,1.52e-01,1.14e+00,1.24e+00,5.46e-01,
414,1.68e-01,1.14e+00,1.23e+00,5.46e-01,
415,1.52e-01,1.14e+00,1.25e+00,5.46e-01,
416,1.68e-01,1.14e+00,1.24e+00,5.46e-01,
417,1.60e-01,1.14e+00,1.25e+00,5.46e-01,
418,1.68e-01,1.14e+00,1.24e+00,5.46e-01,
419,1.60e-01,1.14e+00,1.26e+00,5.46e-01,
420,1.60e-01,1.14e+00,1.25e+00,5.46e-01,
421,1.68e-01,1.14e+00,1.26e+00,5.46e-01,
422,1.68e-01,1.14e+00,1.26e+00,5.46e-01,
423,1.60e-01,1.14e+00,1.28e+00,5.46e-01,
424,1.60e-01,1.14e+00,1.27e+00,5.46e-01,
425,1.76e-01,1.14e+00,1.28e+00,4.06e-01,
426,1.68e-01,1.14e+00,1.27e+00,4.04e-01,
427,1.60e-01,1.14e+00,1.28e+00,3.42e-01,
428,1.68e-01,1.14e+00,1.28e+00,3.42e-01,
429,1.60e-01,1.14e+00,1.29e+00,3.42e-01,
430,1.68e-01,1.14e+00,1.29e+00,3.42e-01,
431,1.60e-01,1.14e+00,1.30e+00,3.42e-01,
432,1.68e-01,1.14e+00,1.29e+00,3.42e-01,
433,1.60e-01,1.14e+00,1.30e+00,3.42e-01,
434,1.68e-01,1.14e+00,1.30e+00,3.42e-01,
435,1.60e-01,1.14e+00,1.31e+00,3.42e-01,
436,1.76e-01,1.14e+00,1.31e+00,3.42e-01,
437,1.52e-01,1.14e+00,1.30e+00,3.42e-01,
438,1.60e-01,1.14e+00,1.30e+00,3.42e-01,
439,1.76e-01,1.14e+00,1.32e+00,3.42e-01,
440,1.76e-01,1.14e+00,1.31e+00,3.42e-01,
441,1.60e-01,1.14e+00,1.32e+00,3.42e-01,
442,1.76e-01,1.14e+00,1.32e+00,3.42e-01,
443,1.60e-01,1.14e+00,1.32e+00,3.42e-01,
444,1.76e-01,1.14e+00,1.32e+00,3.42e-01,
445,1.52e-01,1.14e+00,1.32e+00,3.42e-01,
446,1.68e-01,1.14e+00,1.32e+00,3.42e-01,
447,1.52e-01,1.14e+00,1.33e+00,3.42e-01,
448,1.68e-01,1.14e+00,1.34e+00,3.42e-01,
449,1.52e-01,1.14e+00,1.32e+00,3.56e-01,
450,1.60e-01,1.14e+00,1.32e+00,3.58e-01,
451,1.68e-01,1.14e+00,1.34e+00,3.98e-01,
452,1.68e-01,1.14e+00,1.33e+00,3.98e-01,
453,1.60e-01,1.14e+00,1.34e+00,4.28e-01,
454,1.60e-01,1.14e+00,1.33e+00,4.26e-01,
455,1.76e-01,1.14e+00,1.34e+00,4.54e-01,
456,1.60e-01,1.14e+00,1.34e+00,4.52e-01,
457,1.76e-01,1.14e+00,1.33e+00,4.74e-01,
458,1.76e-01,1.14e+00,1.34e+00,4.75e-01,
459,1.60e-01,1.14e+00,1.35e+00,5.46e-01,
460,1.60e-01,1.14e+00,1.34e+00,5.46e-01,
461,1.76e-01,1.14e+00,1.35e+00,5.46e-01,
462,1.60e-01,1.14e+00,1.34e+00,5.46e-01,
463,1.76e-01,1.14e+00,1.34e+00,5.46e-01,
464,1.52e-01,1.14e+00,1.34e+00,5.46e-01,
465,1.68e-01,1.14e+00,1.34e+00,5.46e-01,
466,1.60e-01,1.14e+00,1.34e+00,5.46e-01,
467,1.68e-01,1.14e+00,1.35e+00,5.46e-01,
468,1.68e-01,1.14e+00,1.35e+00,5.46e-01,
469,1.60e-01,1.14e+00,1.34e+00,5.46e-01,
470,1.68e-01,1.14e+00,1.34e+00,5.46e-01,
471,1.60e-01,1.14e+00,1.34e+00,4.43e-01,
472,1.60e-01,1.14e+00,1.34e+00,4.45e-01,
473,1.76e-01,1.14e+00,1.34e+00,4.34e-01,
474,1.76e-01,1.14e+00,1.34e+00,4.35e-01,
475,1.68e-01,1.14e+00,1.34e+00,4.24e-01,
476,1.76e-01,1.14e+00,1.34e+00,4.27e-01,
477,1.60e-01,1.14e+00,1.33e+00,4.14e-01,
478,1.76e-01,1.14e+00,1.34e+00,4.16e-01,
479,1.60e-01,1.14e+00,1.33e+00,4.08e-01,
480,1.52e-01,1.14e+00,1.33e+00,4.10e-01,
481,1.68e-01,1.14e+00,1.34e+00,4.02e-01,
482,1.68e-01,1.14e+00,1.34e+00,4.04e-01,
483,1.52e-01,1.14e+00,1.32e+00,4.00e-01,
484,1.68e-01,1.14e+00,1.33e+00,4.03e-01,
485,1.52e-01,1.14e+00,1.32e+00,3.96e-01,
486,1.68e-01,1.14e+00,1.33e+00,3.99e-01,
487,1.52e-01,1.14e+00,1.32e+00,3.96e-01,
