csv/1/NewFile10.csv

X,CH1,CH2,CH3,CH4,Start,Increment,
Sequence,Volt,Volt,Volt,Volt,-1.200000e-01,2.000000e-04
0,2.00e-01,1.14e+00,9.56e-01,4.06e-01,
1,2.08e-01,1.14e+00,9.64e-01,4.14e-01,
2,2.08e-01,1.14e+00,9.56e-01,4.10e-01,
3,1.92e-01,1.14e+00,9.68e-01,4.18e-01,
4,2.00e-01,1.14e+00,9.60e-01,4.10e-01,
5,1.92e-01,1.14e+00,9.68e-01,4.19e-01,
6,1.92e-01,1.14e+00,9.60e-01,4.18e-01,
7,2.00e-01,1.14e+00,9.72e-01,4.11e-01,
8,2.00e-01,1.14e+00,9.64e-01,4.15e-01,
9,1.92e-01,1.14e+00,9.76e-01,4.22e-01,
10,1.92e-01,1.14e+00,9.76e-01,4.14e-01,
11,2.08e-01,1.14e+00,9.68e-01,4.19e-01,
12,2.08e-01,1.14e+00,9.72e-01,4.18e-01,
13,1.92e-01,1.14e+00,9.84e-01,4.12e-01,
14,2.08e-01,1.14e+00,9.80e-01,4.13e-01,
15,2.00e-01,1.14e+00,9.88e-01,4.20e-01,
16,2.00e-01,1.14e+00,9.80e-01,4.18e-01,
17,2.08e-01,1.14e+00,9.92e-01,4.14e-01,
18,2.00e-01,1.14e+00,9.84e-01,4.18e-01,
19,2.08e-01,1.14e+00,9.96e-01,4.13e-01,
20,2.08e-01,1.14e+00,9.88e-01,4.14e-01,
21,2.00e-01,1.14e+00,1.00e+00,4.19e-01,
22,2.08e-01,1.14e+00,9.92e-01,4.19e-01,
23,1.92e-01,1.14e+00,1.01e+00,4.15e-01,
24,1.92e-01,1.14e+00,1.00e+00,4.15e-01,
25,2.00e-01,1.14e+00,1.01e+00,4.18e-01,
26,1.92e-01,1.14e+00,1.01e+00,4.14e-01,
27,2.00e-01,1.14e+00,1.02e+00,4.26e-01,
28,1.92e-01,1.14e+00,1.01e+00,4.26e-01,
29,2.00e-01,1.14e+00,1.02e+00,4.20e-01,
30,1.92e-01,1.14e+00,1.02e+00,4.24e-01,
31,2.08e-01,1.14e+00,1.03e+00,4.30e-01,
32,2.08e-01,1.14e+00,1.02e+00,4.25e-01,
33,1.92e-01,1.14e+00,1.04e+00,4.35e-01,
34,2.08e-01,1.14e+00,1.03e+00,4.34e-01,
35,2.00e-01,1.14e+00,1.04e+00,4.29e-01,
36,2.08e-01,1.14e+00,1.04e+00,4.32e-01,
37,2.00e-01,1.14e+00,1.05e+00,4.40e-01,
38,2.08e-01,1.14e+00,1.04e+00,4.40e-01,
39,2.00e-01,1.14e+00,1.06e+00,5.46e-01,
40,2.08e-01,1.14e+00,1.05e+00,5.46e-01,
41,1.92e-01,1.14e+00,1.06e+00,5.46e-01,
42,2.08e-01,1.14e+00,1.06e+00,5.46e-01,
43,1.84e-01,1.14e+00,1.07e+00,5.46e-01,
44,1.92e-01,1.14e+00,1.07e+00,5.46e-01,
45,2.08e-01,1.14e+00,1.08e+00,5.46e-01,
46,2.08e-01,1.14e+00,1.07e+00,5.46e-01,
47,1.92e-01,1.14e+00,1.09e+00,5.46e-01,
48,2.08e-01,1.14e+00,1.08e+00,5.46e-01,
49,1.92e-01,1.14e+00,1.10e+00,5.46e-01,
50,2.00e-01,1.14e+00,1.09e+00,5.46e-01,
51,2.08e-01,1.14e+00,1.10e+00,5.46e-01,
52,2.00e-01,1.14e+00,1.10e+00,5.46e-01,
53,2.16e-01,1.14e+00,1.11e+00,5.46e-01,
54,2.16e-01,1.14e+00,1.11e+00,5.46e-01,
55,2.00e-01,1.14e+00,1.12e+00,5.46e-01,
56,2.16e-01,1.14e+00,1.12e+00,5.46e-01,
57,2.00e-01,1.14e+00,1.13e+00,5.46e-01,
58,2.08e-01,1.14e+00,1.12e+00,5.46e-01,
59,1.92e-01,1.14e+00,1.14e+00,5.46e-01,
60,2.08e-01,1.14e+00,1.13e+00,5.46e-01,
61,1.92e-01,1.14e+00,1.15e+00,5.46e-01,
62,1.92e-01,1.14e+00,1.14e+00,5.46e-01,
63,2.00e-01,1.14e+00,1.15e+00,5.46e-01,
64,1.92e-01,1.14e+00,1.15e+00,5.46e-01,
65,2.08e-01,1.14e+00,1.16e+00,5.46e-01,
66,2.08e-01,1.14e+00,1.16e+00,5.46e-01,
67,1.92e-01,1.14e+00,1.17e+00,5.46e-01,
68,2.08e-01,1.14e+00,1.17e+00,5.46e-01,
69,1.92e-01,1.14e+00,1.18e+00,5.46e-01,
70,2.00e-01,1.14e+00,1.18e+00,5.46e-01,
71,2.08e-01,1.14e+00,1.19e+00,5.46e-01,
72,2.00e-01,1.14e+00,1.18e+00,5.46e-01,
73,2.08e-01,1.14e+00,1.20e+00,5.46e-01,
74,2.08e-01,1.14e+00,1.19e+00,5.46e-01,
75,1.92e-01,1.14e+00,1.20e+00,5.46e-01,
76,1.92e-01,1.14e+00,1.20e+00,5.46e-01,
77,2.08e-01,1.14e+00,1.21e+00,5.46e-01,
78,1.92e-01,1.14e+00,1.20e+00,5.46e-01,
79,2.08e-01,1.14e+00,1.22e+00,5.46e-01,
80,1.92e-01,1.14e+00,1.21e+00,5.46e-01,
81,2.08e-01,1.14e+00,1.22e+00,5.46e-01,
82,1.92e-01,1.14e+00,1.22e+00,5.46e-01,
83,2.08e-01,1.14e+00,1.23e+00,5.46e-01,
84,2.08e-01,1.14e+00,1.22e+00,5.46e-01,
85,2.00e-01,1.14e+00,1.24e+00,5.46e-01,
86,2.00e-01,1.14e+00,1.23e+00,5.46e-01,
87,2.08e-01,1.14e+00,1.24e+00,5.46e-01,
88,2.00e-01,1.14e+00,1.24e+00,5.46e-01,
89,2.16e-01,1.14e+00,1.26e+00,4.66e-01,
90,2.16e-01,1.14e+00,1.26e+00,4.64e-01,
91,2.00e-01,1.14e+00,1.25e+00,3.42e-01,
92,2.16e-01,1.14e+00,1.25e+00,3.42e-01,
93,2.00e-01,1.14e+00,1.26e+00,3.43e-01,
94,2.16e-01,1.14e+00,1.26e+00,3.42e-01,
95,1.92e-01,1.14e+00,1.27e+00,3.42e-01,
96,2.08e-01,1.14e+00,1.27e+00,3.42e-01,
97,1.92e-01,1.14e+00,1.28e+00,3.42e-01,
98,1.92e-01,1.14e+00,1.27e+00,3.42e-01,
99,2.08e-01,1.14e+00,1.28e+00,3.42e-01,
100,2.08e-01,1.14e+00,1.28e+00,3.42e-01,
101,1.92e-01,1.14e+00,1.29e+00,3.42e-01,
102,2.08e-01,1.14e+00,1.28e+00,3.42e-01,
103,1.92e-01,1.14e+00,1.30e+00,3.42e-01,
104,2.00e-01,1.14e+00,1.29e+00,3.42e-01,
105,2.08e-01,1.14e+00,1.30e+00,3.42e-01,
106,2.00e-01,1.14e+00,1.29e+00,3.42e-01,
107,2.16e-01,1.14e+00,1.30e+00,3.42e-01,
108,2.00e-01,1.14e+00,1.30e+00,3.42e-01,
109,2.16e-01,1.14e+00,1.31e+00,3.46e-01,
110,2.00e-01,1.14e+00,1.30e+00,3.42e-01,
111,2.16e-01,1.14e+00,1.32e+00,3.90e-01,
112,2.08e-01,1.14e+00,1.32e+00,3.90e-01,
113,1.92e-01,1.14e+00,1.31e+00,4.35e-01,
114,2.08e-01,1.14e+00,1.31e+00,4.34e-01,
115,1.92e-01,1.14e+00,1.32e+00,4.74e-01,
116,2.08e-01,1.14e+00,1.32e+00,4.74e-01,
117,1.92e-01,1.14e+00,1.31e+00,5.05e-01,
118,2.08e-01,1.14e+00,1.32e+00,5.04e-01,
119,1.92e-01,1.14e+00,1.33e+00,5.25e-01,
120,2.08e-01,1.14e+00,1.33e+00,5.24e-01,
121,1.92e-01,1.14e+00,1.32e+00,5.34e-01,
122,2.08e-01,1.14e+00,1.32e+00,5.32e-01,
123,2.00e-01,1.14e+00,1.33e+00,5.46e-01,
124,2.00e-01,1.14e+00,1.32e+00,5.46e-01,
125,2.16e-01,1.14e+00,1.34e+00,5.34e-01,
126,2.16e-01,1.14e+00,1.32e+00,5.36e-01,
127,2.00e-01,1.14e+00,1.34e+00,5.24e-01,
128,2.16e-01,1.14e+00,1.33e+00,5.25e-01,
129,2.00e-01,1.14e+00,1.34e+00,5.10e-01,
130,2.08e-01,1.14e+00,1.33e+00,5.12e-01,
131,1.92e-01,1.14e+00,1.34e+00,5.01e-01,
132,1.92e-01,1.14e+00,1.33e+00,5.09e-01,
133,2.08e-01,1.14e+00,1.34e+00,4.99e-01,
134,1.92e-01,1.14e+00,1.33e+00,5.00e-01,
135,2.00e-01,1.14e+00,1.34e+00,4.87e-01,
136,1.92e-01,1.14e+00,1.33e+00,4.83e-01,
137,2.08e-01,1.14e+00,1.34e+00,4.90e-01,
138,1.92e-01,1.14e+00,1.34e+00,4.90e-01,
139,2.08e-01,1.14e+00,1.33e+00,4.65e-01,
140,2.08e-01,1.14e+00,1.33e+00,4.59e-01,
141,1.92e-01,1.14e+00,1.34e+00,4.68e-01,
142,2.08e-01,1.14e+00,1.34e+00,4.69e-01,
143,1.92e-01,1.14e+00,1.33e+00,4.58e-01,
144,2.08e-01,1.14e+00,1.33e+00,4.58e-01,
145,1.92e-01,1.14e+00,1.34e+00,4.65e-01,
146,2.00e-01,1.14e+00,1.34e+00,4.64e-01,
147,2.08e-01,1.14e+00,1.32e+00,4.56e-01,
148,2.08e-01,1.14e+00,1.34e+00,4.60e-01,
149,1.92e-01,1.14e+00,1.32e+00,4.68e-01,
150,1.92e-01,1.14e+00,1.34e+00,4.60e-01,
151,2.00e-01,1.14e+00,1.32e+00,4.82e-01,
152,1.92e-01,1.14e+00,1.33e+00,4.89e-01,
153,2.08e-01,1.14e+00,1.32e+00,4.65e-01,
154,1.92e-01,1.14e+00,1.33e+00,4.64e-01,
155,2.08e-01,1.14e+00,1.32e+00,4.70e-01,
156,1.92e-01,1.14e+00,1.31e+00,4.67e-01,
157,2.08e-01,1.14e+00,1.32e+00,4.71e-01,
158,2.08e-01,1.14e+00,1.32e+00,4.74e-01,
159,1.92e-01,1.14e+00,1.31e+00,4.65e-01,
160,2.00e-01,1.14e+00,1.32e+00,4.66e-01,
161,2.08e-01,1.14e+00,1.31e+00,4.71e-01,
162,2.08e-01,1.14e+00,1.32e+00,4.69e-01,
163,2.00e-01,1.14e+00,1.30e+00,4.59e-01,
164,2.08e-01,1.14e+00,1.30e+00,4.64e-01,
165,2.00e-01,1.14e+00,1.30e+00,4.58e-01,
166,2.08e-01,1.14e+00,1.30e+00,4.62e-01,
167,1.92e-01,1.14e+00,1.29e+00,4.54e-01,
168,2.00e-01,1.14e+00,1.30e+00,4.53e-01,
169,1.84e-01,1.14e+00,1.29e+00,4.59e-01,
170,2.00e-01,1.14e+00,1.30e+00,4.58e-01,
171,1.84e-01,1.14e+00,1.28e+00,4.50e-01,
172,2.00e-01,1.14e+00,1.29e+00,4.54e-01,
173,1.84e-01,1.14e+00,1.28e+00,4.48e-01,
174,2.00e-01,1.14e+00,1.28e+00,4.53e-01,
175,1.84e-01,1.14e+00,1.27e+00,4.43e-01,
176,1.92e-01,1.14e+00,1.28e+00,4.46e-01,
177,2.08e-01,1.14e+00,1.26e+00,4.41e-01,
178,1.92e-01,1.14e+00,1.27e+00,4.42e-01,
179,2.08e-01,1.14e+00,1.26e+00,4.34e-01,
180,2.08e-01,1.14e+00,1.26e+00,4.37e-01,
181,1.92e-01,1.14e+00,1.25e+00,4.33e-01,
182,2.08e-01,1.14e+00,1.26e+00,4.37e-01,
183,1.92e-01,1.14e+00,1.25e+00,4.30e-01,
184,2.08e-01,1.14e+00,1.25e+00,4.33e-01,
185,1.92e-01,1.14e+00,1.24e+00,4.29e-01,
186,2.00e-01,1.14e+00,1.25e+00,4.30e-01,
187,1.84e-01,1.14e+00,1.23e+00,4.25e-01,
188,2.00e-01,1.14e+00,1.24e+00,4.27e-01,
189,1.84e-01,1.14e+00,1.23e+00,4.19e-01,
190,2.00e-01,1.14e+00,1.24e+00,4.22e-01,
191,1.84e-01,1.14e+00,1.22e+00,4.18e-01,
192,1.84e-01,1.14e+00,1.23e+00,4.22e-01,
193,2.08e-01,1.14e+00,1.21e+00,4.14e-01,
194,1.92e-01,1.14e+00,1.22e+00,4.18e-01,
195,2.08e-01,1.14e+00,1.21e+00,4.10e-01,
196,1.92e-01,1.14e+00,1.21e+00,4.14e-01,
197,2.08e-01,1.14e+00,1.20e+00,4.09e-01,
198,2.08e-01,1.14e+00,1.21e+00,4.13e-01,
199,1.92e-01,1.14e+00,1.19e+00,4.05e-01,
200,2.08e-01,1.14e+00,1.20e+00,4.10e-01,
201,1.92e-01,1.14e+00,1.19e+00,4.02e-01,
202,2.08e-01,1.14e+00,1.19e+00,4.03e-01,
203,1.92e-01,1.14e+00,1.18e+00,4.09e-01,
204,1.92e-01,1.14e+00,1.18e+00,4.09e-01,
205,2.08e-01,1.14e+00,1.18e+00,4.02e-01,
206,2.00e-01,1.14e+00,1.18e+00,4.07e-01,
207,1.84e-01,1.14e+00,1.16e+00,4.03e-01,
208,1.84e-01,1.14e+00,1.17e+00,4.08e-01,
209,2.00e-01,1.14e+00,1.16e+00,3.99e-01,
210,1.84e-01,1.14e+00,1.16e+00,3.98e-01,
211,2.00e-01,1.14e+00,1.15e+00,4.06e-01,
212,2.00e-01,1.14e+00,1.16e+00,4.04e-01,
213,1.92e-01,1.14e+00,1.14e+00,4.00e-01,
214,1.92e-01,1.14e+00,1.15e+00,4.00e-01,
215,2.08e-01,1.14e+00,1.14e+00,4.05e-01,
216,2.08e-01,1.14e+00,1.14e+00,4.04e-01,
217,1.92e-01,1.14e+00,1.13e+00,4.01e-01,
218,2.08e-01,1.14e+00,1.14e+00,4.02e-01,
219,1.92e-01,1.14e+00,1.12e+00,4.04e-01,
220,2.08e-01,1.14e+00,1.12e+00,4.02e-01,
221,1.92e-01,1.14e+00,1.12e+00,4.05e-01,
222,1.92e-01,1.14e+00,1.12e+00,4.06e-01,
223,2.08e-01,1.14e+00,1.10e+00,4.02e-01,
224,2.00e-01,1.14e+00,1.11e+00,4.06e-01,
225,1.84e-01,1.14e+00,1.10e+00,4.00e-01,
226,2.00e-01,1.14e+00,1.10e+00,4.06e-01,
227,1.84e-01,1.14e+00,1.10e+00,4.02e-01,
228,2.00e-01,1.14e+00,1.10e+00,4.04e-01,
229,1.84e-01,1.14e+00,1.09e+00,3.99e-01,
230,1.92e-01,1.14e+00,1.10e+00,4.06e-01,
231,2.08e-01,1.14e+00,1.08e+00,4.02e-01,
232,1.92e-01,1.14e+00,1.08e+00,4.04e-01,
233,2.08e-01,1.14e+00,1.07e+00,4.02e-01,
234,2.08e-01,1.14e+00,1.08e+00,4.06e-01,
235,1.92e-01,1.14e+00,1.07e+00,4.02e-01,
236,2.08e-01,1.14e+00,1.07e+00,4.04e-01,
237,2.00e-01,1.14e+00,1.06e+00,4.02e-01,
238,2.08e-01,1.14e+00,1.06e+00,4.00e-01,
239,2.00e-01,1.14e+00,1.06e+00,4.06e-01,
240,2.08e-01,1.14e+00,1.06e+00,4.02e-01,
241,1.84e-01,1.14e+00,1.05e+00,4.06e-01,
242,2.00e-01,1.14e+00,1.06e+00,4.00e-01,
243,1.84e-01,1.14e+00,1.04e+00,4.10e-01,
244,2.00e-01,1.14e+00,1.05e+00,4.08e-01,
245,1.84e-01,1.14e+00,1.04e+00,3.99e-01,
246,2.00e-01,1.14e+00,1.05e+00,4.06e-01,
247,1.84e-01,1.14e+00,1.03e+00,3.99e-01,
248,1.84e-01,1.14e+00,1.04e+00,4.06e-01,
249,2.00e-01,1.14e+00,1.03e+00,4.01e-01,
250,1.92e-01,1.14e+00,1.04e+00,4.05e-01,
251,2.00e-01,1.14e+00,1.02e+00,3.98e-01,
252,1.92e-01,1.14e+00,1.03e+00,3.98e-01,
253,2.08e-01,1.14e+00,1.02e+00,4.05e-01,
254,1.92e-01,1.14e+00,1.02e+00,3.99e-01,
255,2.08e-01,1.14e+00,1.03e+00,4.06e-01,
256,1.92e-01,1.14e+00,1.02e+00,4.00e-01,
257,2.08e-01,1.14e+00,1.01e+00,4.06e-01,
258,2.08e-01,1.14e+00,1.02e+00,4.00e-01,
259,1.84e-01,1.14e+00,1.01e+00,4.08e-01,
260,1.84e-01,1.14e+00,1.02e+00,4.08e-01,
261,2.00e-01,1.14e+00,1.00e+00,3.98e-01,
262,1.84e-01,1.14e+00,1.01e+00,3.98e-01,
263,2.00e-01,1.14e+00,9.96e-01,4.06e-01,
264,1.92e-01,1.14e+00,1.00e+00,4.04e-01,
265,2.00e-01,1.14e+00,9.92e-01,3.99e-01,
266,2.00e-01,1.14e+00,9.92e-01,3.99e-01,
267,1.92e-01,1.14e+00,1.00e+00,4.06e-01,
268,2.00e-01,1.14e+00,9.96e-01,4.04e-01,
269,1.92e-01,1.14e+00,9.88e-01,4.00e-01,
270,1.92e-01,1.14e+00,9.96e-01,4.00e-01,
271,2.08e-01,1.14e+00,9.84e-01,4.03e-01,
272,2.08e-01,1.14e+00,9.88e-01,3.96e-01,
273,1.92e-01,1.14e+00,9.80e-01,4.03e-01,
274,2.00e-01,1.14e+00,9.88e-01,3.98e-01,
275,2.08e-01,1.14e+00,9.76e-01,4.02e-01,
276,2.08e-01,1.14e+00,9.72e-01,3.97e-01,
277,1.92e-01,1.14e+00,9.84e-01,4.04e-01,
278,2.08e-01,1.14e+00,9.84e-01,3.98e-01,
279,1.84e-01,1.14e+00,9.68e-01,4.02e-01,
280,2.00e-01,1.14e+00,9.76e-01,3.98e-01,
281,1.84e-01,1.14e+00,9.68e-01,4.02e-01,
282,2.00e-01,1.14e+00,9.72e-01,4.02e-01,
283,1.84e-01,1.14e+00,9.64e-01,3.98e-01,
284,1.84e-01,1.14e+00,9.68e-01,4.03e-01,
285,2.00e-01,1.14e+00,9.60e-01,3.97e-01,
286,2.00e-01,1.14e+00,9.68e-01,3.98e-01,
287,1.84e-01,1.14e+00,9.60e-01,4.03e-01,
288,2.00e-01,1.14e+00,9.64e-01,3.99e-01,
289,1.92e-01,1.14e+00,9.56e-01,4.05e-01,
290,1.92e-01,1.14e+00,9.64e-01,4.06e-01,
291,2.08e-01,1.14e+00,9.56e-01,4.00e-01,
292,1.92e-01,1.14e+00,9.56e-01,3.98e-01,
293,2.08e-01,1.14e+00,9.64e-01,4.04e-01,
294,2.08e-01,1.14e+00,9.60e-01,3.98e-01,
295,1.92e-01,1.14e+00,9.52e-01,4.05e-01,
296,2.00e-01,1.14e+00,9.48e-01,4.03e-01,
297,1.84e-01,1.14e+00,9.60e-01,3.98e-01,
298,2.00e-01,1.14e+00,9.60e-01,4.04e-01,
299,1.84e-01,1.14e+00,9.48e-01,3.98e-01,
300,1.84e-01,1.14e+00,9.52e-01,3.98e-01,
301,2.00e-01,1.14e+00,9.44e-01,4.02e-01,
302,2.00e-01,1.14e+00,9.52e-01,3.98e-01,
303,1.84e-01,1.14e+00,9.44e-01,4.05e-01,
304,2.00e-01,1.14e+00,9.44e-01,4.02e-01,
305,1.84e-01,1.14e+00,9.52e-01,3.97e-01,
306,2.00e-01,1.14e+00,9.48e-01,4.03e-01,
307,1.84e-01,1.14e+00,9.40e-01,3.97e-01,
308,1.92e-01,1.14e+00,9.48e-01,4.06e-01,
309,2.08e-01,1.14e+00,9.40e-01,3.98e-01,
310,1.92e-01,1.14e+00,9.48e-01,3.98e-01,
311,2.08e-01,1.14e+00,9.40e-01,4.04e-01,
312,1.92e-01,1.14e+00,9.48e-01,4.03e-01,
313,2.08e-01,1.14e+00,9.36e-01,3.98e-01,
314,2.08e-01,1.14e+00,9.44e-01,3.98e-01,
315,1.84e-01,1.14e+00,9.36e-01,4.02e-01,
316,1.84e-01,1.14e+00,9.44e-01,4.02e-01,
317,2.00e-01,1.14e+00,9.36e-01,3.98e-01,
318,2.00e-01,1.14e+00,9.44e-01,4.02e-01,
319,1.84e-01,1.14e+00,9.36e-01,3.98e-01,
320,1.84e-01,1.14e+00,9.44e-01,3.97e-01,
321,2.00e-01,1.14e+00,9.36e-01,4.02e-01,
322,2.00e-01,1.14e+00,9.44e-01,4.02e-01,
323,1.84e-01,1.14e+00,9.36e-01,3.98e-01,
324,2.00e-01,1.14e+00,9.44e-01,4.03e-01,
325,1.84e-01,1.14e+00,9.36e-01,3.98e-01,
326,2.00e-01,1.14e+00,9.36e-01,3.98e-01,
327,1.92e-01,1.14e+00,9.44e-01,4.05e-01,
328,2.00e-01,1.14e+00,9.36e-01,4.03e-01,
329,1.84e-01,1.14e+00,9.44e-01,3.95e-01,
330,2.00e-01,1.14e+00,9.36e-01,4.02e-01,
331,1.84e-01,1.14e+00,9.44e-01,3.97e-01,
332,1.92e-01,1.14e+00,9.36e-01,3.98e-01,
333,2.00e-01,1.14e+00,9.44e-01,4.02e-01,
334,2.00e-01,1.14e+00,9.36e-01,4.01e-01,
335,1.84e-01,1.14e+00,9.44e-01,3.95e-01,
336,1.84e-01,1.14e+00,9.40e-01,3.98e-01,
337,1.92e-01,1.14e+00,9.44e-01,4.02e-01,
338,1.84e-01,1.14e+00,9.40e-01,3.97e-01,
339,2.00e-01,1.14e+00,9.48e-01,4.02e-01,
340,1.84e-01,1.14e+00,9.48e-01,4.02e-01,
341,2.00e-01,1.14e+00,9.40e-01,3.98e-01,
342,1.84e-01,1.14e+00,9.48e-01,3.98e-01,
343,2.00e-01,1.14e+00,9.40e-01,4.02e-01,
344,1.92e-01,1.14e+00,9.40e-01,3.99e-01,
345,2.00e-01,1.14e+00,9.52e-01,4.05e-01,
346,1.92e-01,1.14e+00,9.44e-01,4.04e-01,
347,2.08e-01,1.14e+00,9.52e-01,3.99e-01,
348,1.92e-01,1.14e+00,9.52e-01,4.08e-01,
349,2.08e-01,1.14e+00,9.44e-01,4.00e-01,
350,2.08e-01,1.14e+00,9.56e-01,3.99e-01,
351,1.92e-01,1.14e+00,9.48e-01,4.03e-01,
352,2.00e-01,1.14e+00,9.48e-01,4.00e-01,
353,1.84e-01,1.14e+00,9.60e-01,4.06e-01,
354,1.84e-01,1.14e+00,9.56e-01,4.00e-01,
355,2.00e-01,1.14e+00,9.64e-01,4.09e-01,
356,1.84e-01,1.14e+00,9.56e-01,4.09e-01,
357,1.92e-01,1.14e+00,9.64e-01,4.02e-01,
358,1.92e-01,1.14e+00,9.60e-01,4.03e-01,
359,1.76e-01,1.14e+00,9.68e-01,4.10e-01,
360,1.84e-01,1.14e+00,9.60e-01,4.03e-01,
361,2.00e-01,1.14e+00,9.72e-01,4.11e-01,
362,1.84e-01,1.14e+00,9.64e-01,4.14e-01,
363,2.00e-01,1.14e+00,9.76e-01,4.06e-01,
364,2.00e-01,1.14e+00,9.68e-01,4.07e-01,
365,1.84e-01,1.14e+00,9.76e-01,4.11e-01,
366,2.00e-01,1.14e+00,9.72e-01,4.09e-01,
367,1.84e-01,1.14e+00,9.84e-01,4.13e-01,
368,2.00e-01,1.14e+00,9.80e-01,4.12e-01,
369,1.84e-01,1.14e+00,9.88e-01,4.16e-01,
370,1.92e-01,1.14e+00,9.80e-01,4.18e-01,
371,2.00e-01,1.14e+00,9.92e-01,4.13e-01,
372,2.00e-01,1.14e+00,9.88e-01,4.14e-01,
373,1.84e-01,1.14e+00,9.96e-01,4.18e-01,
374,1.84e-01,1.14e+00,9.92e-01,4.16e-01,
375,1.92e-01,1.14e+00,1.00e+00,4.22e-01,
376,1.84e-01,1.14e+00,9.96e-01,4.19e-01,
377,1.92e-01,1.14e+00,1.01e+00,4.16e-01,
378,1.84e-01,1.14e+00,1.00e+00,4.17e-01,
379,2.00e-01,1.14e+00,1.01e+00,4.20e-01,
380,2.00e-01,1.14e+00,1.01e+00,4.19e-01,
381,1.84e-01,1.14e+00,1.02e+00,4.26e-01,
382,2.00e-01,1.14e+00,1.01e+00,4.19e-01,
383,1.84e-01,1.14e+00,1.03e+00,4.26e-01,
384,1.92e-01,1.14e+00,1.02e+00,4.26e-01,
385,2.08e-01,1.14e+00,1.03e+00,4.22e-01,
386,2.08e-01,1.14e+00,1.02e+00,4.24e-01,
387,1.92e-01,1.14e+00,1.04e+00,4.30e-01,
388,1.92e-01,1.14e+00,1.03e+00,4.25e-01,
389,2.08e-01,1.14e+00,1.04e+00,4.29e-01,
390,2.08e-01,1.14e+00,1.04e+00,4.28e-01,
391,1.84e-01,1.14e+00,1.06e+00,4.41e-01,
392,1.84e-01,1.14e+00,1.05e+00,4.42e-01,
393,2.00e-01,1.14e+00,1.06e+00,5.46e-01,
394,1.92e-01,1.14e+00,1.05e+00,5.46e-01,
395,1.84e-01,1.14e+00,1.06e+00,5.46e-01,
396,1.84e-01,1.14e+00,1.06e+00,5.46e-01,
397,2.00e-01,1.14e+00,1.08e+00,5.46e-01,
398,2.00e-01,1.14e+00,1.07e+00,5.46e-01,
399,1.84e-01,1.14e+00,1.08e+00,5.46e-01,
400,1.84e-01,1.14e+00,1.08e+00,5.46e-01,
401,2.00e-01,1.14e+00,1.09e+00,5.46e-01,
402,2.00e-01,1.14e+00,1.09e+00,5.46e-01,
403,1.92e-01,1.14e+00,1.10e+00,5.46e-01,
404,2.00e-01,1.14e+00,1.10e+00,5.46e-01,
405,1.92e-01,1.14e+00,1.11e+00,5.46e-01,
406,1.92e-01,1.14e+00,1.10e+00,5.46e-01,
407,2.00e-01,1.14e+00,1.12e+00,5.46e-01,
408,2.00e-01,1.14e+00,1.11e+00,5.46e-01,
409,1.84e-01,1.14e+00,1.12e+00,5.46e-01,
410,1.84e-01,1.14e+00,1.12e+00,5.46e-01,
411,2.00e-01,1.14e+00,1.14e+00,5.46e-01,
412,1.84e-01,1.14e+00,1.12e+00,5.46e-01,
413,2.00e-01,1.14e+00,1.14e+00,5.46e-01,
414,1.84e-01,1.14e+00,1.14e+00,5.46e-01,
415,2.00e-01,1.14e+00,1.15e+00,5.46e-01,
416,2.00e-01,1.14e+00,1.14e+00,5.46e-01,
417,1.84e-01,1.14e+00,1.16e+00,5.46e-01,
418,2.00e-01,1.14e+00,1.16e+00,5.46e-01,
419,1.92e-01,1.14e+00,1.17e+00,5.46e-01,
420,1.92e-01,1.14e+00,1.16e+00,5.46e-01,
421,2.00e-01,1.14e+00,1.18e+00,5.46e-01,
422,1.92e-01,1.14e+00,1.17e+00,5.46e-01,
423,2.08e-01,1.14e+00,1.18e+00,5.46e-01,
424,1.92e-01,1.14e+00,1.18e+00,5.46e-01,
425,2.08e-01,1.14e+00,1.19e+00,5.46e-01,
426,2.08e-01,1.14e+00,1.18e+00,5.46e-01,
427,1.92e-01,1.14e+00,1.20e+00,5.46e-01,
428,2.08e-01,1.14e+00,1.19e+00,5.46e-01,
429,1.84e-01,1.14e+00,1.21e+00,5.46e-01,
430,2.00e-01,1.14e+00,1.20e+00,5.46e-01,
431,1.84e-01,1.14e+00,1.22e+00,5.46e-01,
432,2.00e-01,1.14e+00,1.21e+00,5.46e-01,
433,1.84e-01,1.14e+00,1.22e+00,5.46e-01,
434,2.00e-01,1.14e+00,1.21e+00,5.46e-01,
435,1.84e-01,1.14e+00,1.23e+00,5.46e-01,
436,2.00e-01,1.14e+00,1.22e+00,5.46e-01,
437,1.84e-01,1.14e+00,1.24e+00,5.46e-01,
438,1.92e-01,1.14e+00,1.23e+00,5.46e-01,
439,2.00e-01,1.14e+00,1.24e+00,5.46e-01,
440,1.92e-01,1.14e+00,1.24e+00,5.46e-01,
441,2.08e-01,1.14e+00,1.25e+00,5.11e-01,
442,1.92e-01,1.14e+00,1.25e+00,5.10e-01,
443,2.08e-01,1.14e+00,1.26e+00,3.42e-01,
444,1.92e-01,1.14e+00,1.25e+00,3.42e-01,
445,2.08e-01,1.14e+00,1.26e+00,3.44e-01,
446,2.08e-01,1.14e+00,1.26e+00,3.42e-01,
447,1.84e-01,1.14e+00,1.27e+00,3.42e-01,
448,2.00e-01,1.14e+00,1.26e+00,3.42e-01,
449,1.84e-01,1.14e+00,1.28e+00,3.42e-01,
450,2.00e-01,1.14e+00,1.27e+00,3.42e-01,
451,1.84e-01,1.14e+00,1.28e+00,3.42e-01,
452,1.84e-01,1.14e+00,1.28e+00,3.42e-01,
453,2.00e-01,1.14e+00,1.29e+00,3.42e-01,
454,2.00e-01,1.14e+00,1.29e+00,3.42e-01,
455,1.92e-01,1.14e+00,1.28e+00,3.42e-01,
456,1.92e-01,1.14e+00,1.29e+00,3.42e-01,
457,2.08e-01,1.14e+00,1.30e+00,3.42e-01,
458,2.08e-01,1.14e+00,1.29e+00,3.42e-01,
459,1.92e-01,1.14e+00,1.30e+00,3.42e-01,
460,2.08e-01,1.14e+00,1.30e+00,3.42e-01,
461,1.92e-01,1.14e+00,1.31e+00,3.45e-01,
462,2.08e-01,1.14e+00,1.30e+00,3.42e-01,
463,1.92e-01,1.14e+00,1.31e+00,3.82e-01,
464,2.08e-01,1.14e+00,1.30e+00,3.82e-01,
465,1.84e-01,1.14e+00,1.32e+00,4.27e-01,
466,2.00e-01,1.14e+00,1.32e+00,4.26e-01,
467,1.84e-01,1.14e+00,1.31e+00,4.66e-01,
468,2.00e-01,1.14e+00,1.31e+00,4.66e-01,
469,1.84e-01,1.14e+00,1.32e+00,5.00e-01,
470,2.00e-01,1.14e+00,1.31e+00,4.98e-01,
471,1.84e-01,1.14e+00,1.32e+00,5.17e-01,
472,2.00e-01,1.14e+00,1.32e+00,5.16e-01,
473,1.84e-01,1.14e+00,1.33e+00,5.30e-01,
474,1.92e-01,1.14e+00,1.33e+00,5.29e-01,
475,2.00e-01,1.14e+00,1.32e+00,5.46e-01,
476,1.92e-01,1.14e+00,1.33e+00,5.44e-01,
477,2.00e-01,1.14e+00,1.32e+00,5.46e-01,
478,1.92e-01,1.14e+00,1.32e+00,5.45e-01,
479,2.08e-01,1.14e+00,1.34e+00,5.35e-01,
480,1.92e-01,1.14e+00,1.34e+00,5.36e-01,
481,2.08e-01,1.14e+00,1.32e+00,5.18e-01,
482,2.08e-01,1.14e+00,1.32e+00,5.20e-01,
483,1.92e-01,1.14e+00,1.34e+00,5.05e-01,
484,1.92e-01,1.14e+00,1.34e+00,5.10e-01,
485,2.08e-01,1.14e+00,1.33e+00,5.01e-01,
486,2.00e-01,1.14e+00,1.34e+00,5.00e-01,
487,1.84e-01,1.14e+00,1.33e+00,4.86e-01,
