csv/1/NewFile17.csv

X,CH1,CH2,CH3,CH4,Start,Increment,
Sequence,Volt,Volt,Volt,Volt,-1.200000e-01,2.000000e-04
0,8.80e-02,1.14e+00,9.28e-01,4.63e-01,
1,8.00e-02,1.14e+00,9.20e-01,4.67e-01,
2,8.00e-02,1.14e+00,9.28e-01,4.66e-01,
3,1.04e-01,1.14e+00,9.20e-01,4.63e-01,
4,1.04e-01,1.14e+00,9.28e-01,4.64e-01,
5,8.80e-02,1.14e+00,9.20e-01,4.70e-01,
6,1.04e-01,1.14e+00,9.28e-01,4.70e-01,
7,8.80e-02,1.14e+00,9.20e-01,4.65e-01,
8,1.04e-01,1.14e+00,9.20e-01,4.65e-01,
9,8.80e-02,1.14e+00,9.32e-01,4.69e-01,
10,8.80e-02,1.14e+00,9.24e-01,4.69e-01,
11,1.04e-01,1.14e+00,9.32e-01,4.62e-01,
12,8.80e-02,1.14e+00,9.32e-01,4.64e-01,
13,8.00e-02,1.14e+00,9.24e-01,4.58e-01,
14,8.80e-02,1.14e+00,9.24e-01,4.62e-01,
15,1.04e-01,1.14e+00,9.32e-01,4.56e-01,
16,8.80e-02,1.14e+00,9.24e-01,4.59e-01,
17,1.04e-01,1.14e+00,9.36e-01,4.53e-01,
18,1.04e-01,1.14e+00,9.40e-01,4.54e-01,
19,8.80e-02,1.14e+00,9.28e-01,4.50e-01,
20,1.04e-01,1.14e+00,9.40e-01,4.52e-01,
21,8.80e-02,1.14e+00,9.28e-01,4.46e-01,
22,8.00e-02,1.14e+00,9.36e-01,4.47e-01,
23,1.04e-01,1.14e+00,9.44e-01,4.43e-01,
24,9.60e-02,1.14e+00,9.36e-01,4.44e-01,
25,8.00e-02,1.14e+00,9.44e-01,4.39e-01,
26,8.80e-02,1.14e+00,9.40e-01,4.42e-01,
27,8.00e-02,1.14e+00,9.48e-01,4.37e-01,
28,8.00e-02,1.14e+00,9.40e-01,4.39e-01,
29,9.60e-02,1.14e+00,9.52e-01,4.34e-01,
30,8.80e-02,1.14e+00,9.44e-01,4.38e-01,
31,1.04e-01,1.14e+00,9.56e-01,4.34e-01,
32,8.80e-02,1.14e+00,9.48e-01,4.34e-01,
33,1.04e-01,1.14e+00,9.60e-01,4.37e-01,
34,8.80e-02,1.14e+00,9.56e-01,4.36e-01,
35,1.04e-01,1.14e+00,9.64e-01,4.32e-01,
36,1.04e-01,1.14e+00,9.60e-01,4.31e-01,
37,8.80e-02,1.14e+00,9.68e-01,4.35e-01,
38,8.80e-02,1.14e+00,9.60e-01,4.34e-01,
39,1.04e-01,1.14e+00,9.72e-01,4.30e-01,
40,8.80e-02,1.14e+00,9.68e-01,4.30e-01,
41,8.80e-02,1.14e+00,9.76e-01,4.33e-01,
42,8.00e-02,1.14e+00,9.72e-01,4.33e-01,
43,9.60e-02,1.14e+00,9.88e-01,4.30e-01,
44,8.00e-02,1.14e+00,9.80e-01,4.33e-01,
45,1.04e-01,1.14e+00,9.92e-01,4.30e-01,
46,8.00e-02,1.14e+00,9.84e-01,4.29e-01,
47,1.04e-01,1.14e+00,1.00e+00,4.32e-01,
48,1.04e-01,1.14e+00,9.92e-01,4.32e-01,
49,8.80e-02,1.14e+00,1.01e+00,4.29e-01,
50,1.04e-01,1.14e+00,1.00e+00,4.29e-01,
51,8.00e-02,1.14e+00,1.01e+00,4.33e-01,
52,9.60e-02,1.14e+00,1.01e+00,4.32e-01,
53,8.00e-02,1.14e+00,1.02e+00,4.29e-01,
54,8.80e-02,1.14e+00,1.02e+00,4.29e-01,
55,8.80e-02,1.14e+00,1.03e+00,4.33e-01,
56,8.80e-02,1.14e+00,1.02e+00,4.31e-01,
57,1.04e-01,1.14e+00,1.04e+00,4.39e-01,
58,8.00e-02,1.14e+00,1.03e+00,4.39e-01,
59,1.04e-01,1.14e+00,1.05e+00,5.46e-01,
60,8.80e-02,1.14e+00,1.04e+00,5.46e-01,
61,1.04e-01,1.14e+00,1.06e+00,5.46e-01,
62,1.04e-01,1.14e+00,1.05e+00,5.46e-01,
63,8.80e-02,1.14e+00,1.07e+00,5.46e-01,
64,1.04e-01,1.14e+00,1.06e+00,5.46e-01,
65,8.00e-02,1.14e+00,1.08e+00,5.46e-01,
66,8.80e-02,1.14e+00,1.07e+00,5.46e-01,
67,8.00e-02,1.14e+00,1.09e+00,5.46e-01,
68,8.80e-02,1.14e+00,1.08e+00,5.46e-01,
69,8.00e-02,1.14e+00,1.10e+00,5.46e-01,
70,8.80e-02,1.14e+00,1.10e+00,5.46e-01,
71,8.00e-02,1.14e+00,1.11e+00,5.46e-01,
72,8.00e-02,1.14e+00,1.10e+00,5.46e-01,
73,1.04e-01,1.14e+00,1.12e+00,5.46e-01,
74,8.80e-02,1.14e+00,1.12e+00,5.46e-01,
75,1.04e-01,1.14e+00,1.13e+00,5.46e-01,
76,8.80e-02,1.14e+00,1.12e+00,5.46e-01,
77,1.04e-01,1.14e+00,1.14e+00,5.46e-01,
78,8.80e-02,1.14e+00,1.14e+00,5.46e-01,
79,1.04e-01,1.14e+00,1.15e+00,5.46e-01,
80,8.80e-02,1.14e+00,1.15e+00,5.46e-01,
81,8.80e-02,1.14e+00,1.16e+00,5.46e-01,
82,8.80e-02,1.14e+00,1.16e+00,5.46e-01,
83,8.80e-02,1.14e+00,1.17e+00,5.46e-01,
84,8.00e-02,1.14e+00,1.17e+00,5.46e-01,
85,1.04e-01,1.14e+00,1.19e+00,5.46e-01,
86,1.04e-01,1.14e+00,1.18e+00,5.46e-01,
87,8.00e-02,1.14e+00,1.20e+00,5.46e-01,
88,1.04e-01,1.14e+00,1.19e+00,5.46e-01,
89,8.00e-02,1.14e+00,1.20e+00,5.46e-01,
90,1.04e-01,1.14e+00,1.20e+00,5.46e-01,
91,8.80e-02,1.14e+00,1.22e+00,5.46e-01,
92,1.04e-01,1.14e+00,1.21e+00,5.46e-01,
93,8.00e-02,1.14e+00,1.22e+00,5.46e-01,
94,8.00e-02,1.14e+00,1.22e+00,5.46e-01,
95,1.04e-01,1.14e+00,1.24e+00,5.46e-01,
96,8.80e-02,1.14e+00,1.23e+00,5.46e-01,
97,8.80e-02,1.14e+00,1.24e+00,5.46e-01,
98,8.00e-02,1.14e+00,1.24e+00,5.46e-01,
99,1.04e-01,1.14e+00,1.25e+00,5.46e-01,
100,8.80e-02,1.14e+00,1.25e+00,5.46e-01,
101,1.04e-01,1.14e+00,1.26e+00,5.46e-01,
102,1.04e-01,1.14e+00,1.25e+00,5.46e-01,
103,8.80e-02,1.14e+00,1.26e+00,5.46e-01,
104,1.04e-01,1.14e+00,1.26e+00,5.46e-01,
105,8.80e-02,1.14e+00,1.28e+00,4.91e-01,
106,1.04e-01,1.14e+00,1.27e+00,4.89e-01,
107,8.00e-02,1.14e+00,1.28e+00,3.42e-01,
108,8.80e-02,1.14e+00,1.27e+00,3.42e-01,
109,8.00e-02,1.14e+00,1.28e+00,3.42e-01,
110,8.80e-02,1.14e+00,1.28e+00,3.42e-01,
111,8.00e-02,1.14e+00,1.30e+00,3.42e-01,
112,8.80e-02,1.14e+00,1.30e+00,3.42e-01,
113,1.04e-01,1.14e+00,1.29e+00,3.42e-01,
114,1.04e-01,1.14e+00,1.29e+00,3.42e-01,
115,8.80e-02,1.14e+00,1.30e+00,3.42e-01,
116,1.04e-01,1.14e+00,1.30e+00,3.42e-01,
117,8.80e-02,1.14e+00,1.31e+00,3.42e-01,
118,1.04e-01,1.14e+00,1.31e+00,3.42e-01,
119,8.80e-02,1.14e+00,1.32e+00,3.42e-01,
120,1.04e-01,1.14e+00,1.31e+00,3.42e-01,
121,8.80e-02,1.14e+00,1.32e+00,3.42e-01,
122,8.80e-02,1.14e+00,1.31e+00,3.42e-01,
123,8.00e-02,1.14e+00,1.32e+00,3.42e-01,
124,8.80e-02,1.14e+00,1.32e+00,3.42e-01,
125,9.60e-02,1.14e+00,1.34e+00,3.42e-01,
126,8.80e-02,1.14e+00,1.34e+00,3.42e-01,
127,9.60e-02,1.14e+00,1.32e+00,3.42e-01,
128,8.80e-02,1.14e+00,1.32e+00,3.42e-01,
129,1.04e-01,1.14e+00,1.34e+00,3.70e-01,
130,1.04e-01,1.14e+00,1.33e+00,3.70e-01,
131,8.80e-02,1.14e+00,1.34e+00,4.10e-01,
132,8.80e-02,1.14e+00,1.34e+00,4.10e-01,
133,1.04e-01,1.14e+00,1.34e+00,5.21e-01,
134,8.80e-02,1.14e+00,1.34e+00,5.23e-01,
135,1.04e-01,1.14e+00,1.34e+00,5.46e-01,
136,8.80e-02,1.14e+00,1.34e+00,5.46e-01,
137,8.00e-02,1.14e+00,1.35e+00,5.46e-01,
138,8.00e-02,1.14e+00,1.34e+00,5.46e-01,
139,9.60e-02,1.14e+00,1.35e+00,5.46e-01,
140,8.80e-02,1.14e+00,1.34e+00,5.46e-01,
141,1.04e-01,1.14e+00,1.34e+00,5.46e-01,
142,1.04e-01,1.14e+00,1.34e+00,5.46e-01,
143,8.80e-02,1.14e+00,1.34e+00,5.06e-01,
144,8.80e-02,1.14e+00,1.34e+00,5.07e-01,
145,1.04e-01,1.14e+00,1.34e+00,4.99e-01,
146,8.80e-02,1.14e+00,1.34e+00,5.04e-01,
147,1.04e-01,1.14e+00,1.34e+00,4.98e-01,
148,1.04e-01,1.14e+00,1.33e+00,5.01e-01,
149,8.80e-02,1.14e+00,1.34e+00,4.92e-01,
150,8.80e-02,1.14e+00,1.34e+00,4.94e-01,
151,8.00e-02,1.14e+00,1.33e+00,4.88e-01,
152,8.00e-02,1.14e+00,1.34e+00,4.88e-01,
153,9.60e-02,1.14e+00,1.33e+00,4.78e-01,
154,1.04e-01,1.14e+00,1.33e+00,4.80e-01,
155,8.00e-02,1.14e+00,1.32e+00,4.70e-01,
156,8.80e-02,1.14e+00,1.33e+00,4.72e-01,
157,1.04e-01,1.14e+00,1.32e+00,4.67e-01,
158,8.80e-02,1.14e+00,1.33e+00,4.69e-01,
159,1.04e-01,1.14e+00,1.31e+00,4.61e-01,
160,1.04e-01,1.14e+00,1.32e+00,4.63e-01,
161,8.00e-02,1.14e+00,1.31e+00,4.57e-01,
162,8.00e-02,1.14e+00,1.32e+00,4.58e-01,
163,1.04e-01,1.14e+00,1.30e+00,4.54e-01,
164,8.80e-02,1.14e+00,1.30e+00,4.56e-01,
165,8.80e-02,1.14e+00,1.30e+00,4.50e-01,
166,8.80e-02,1.14e+00,1.30e+00,4.50e-01,
167,9.60e-02,1.14e+00,1.29e+00,4.54e-01,
168,8.00e-02,1.14e+00,1.29e+00,4.55e-01,
169,1.04e-01,1.14e+00,1.28e+00,4.52e-01,
170,1.04e-01,1.14e+00,1.28e+00,4.53e-01,
171,8.80e-02,1.14e+00,1.27e+00,4.55e-01,
172,1.04e-01,1.14e+00,1.28e+00,4.51e-01,
173,8.80e-02,1.14e+00,1.26e+00,4.55e-01,
174,1.04e-01,1.14e+00,1.27e+00,4.54e-01,
175,8.80e-02,1.14e+00,1.26e+00,4.58e-01,
176,9.60e-02,1.14e+00,1.26e+00,4.55e-01,
177,8.00e-02,1.14e+00,1.25e+00,4.59e-01,
178,8.80e-02,1.14e+00,1.25e+00,4.56e-01,
179,8.00e-02,1.14e+00,1.24e+00,4.61e-01,
180,8.80e-02,1.14e+00,1.24e+00,4.58e-01,
181,8.00e-02,1.14e+00,1.23e+00,4.61e-01,
182,8.00e-02,1.14e+00,1.24e+00,4.61e-01,
183,1.04e-01,1.14e+00,1.22e+00,4.58e-01,
184,8.80e-02,1.14e+00,1.22e+00,4.58e-01,
185,1.04e-01,1.14e+00,1.21e+00,4.63e-01,
186,1.04e-01,1.14e+00,1.22e+00,4.60e-01,
187,8.80e-02,1.14e+00,1.20e+00,4.66e-01,
188,8.80e-02,1.14e+00,1.21e+00,4.66e-01,
189,1.04e-01,1.14e+00,1.19e+00,4.61e-01,
190,8.80e-02,1.14e+00,1.20e+00,4.62e-01,
191,9.60e-02,1.14e+00,1.18e+00,4.67e-01,
192,8.80e-02,1.14e+00,1.18e+00,4.65e-01,
193,8.80e-02,1.14e+00,1.17e+00,4.69e-01,
194,8.00e-02,1.14e+00,1.18e+00,4.66e-01,
195,9.60e-02,1.14e+00,1.16e+00,4.70e-01,
196,1.04e-01,1.14e+00,1.17e+00,4.70e-01,
197,8.00e-02,1.14e+00,1.16e+00,4.67e-01,
198,8.80e-02,1.14e+00,1.16e+00,4.69e-01,
199,1.04e-01,1.14e+00,1.14e+00,4.73e-01,
200,1.04e-01,1.14e+00,1.15e+00,4.70e-01,
201,8.80e-02,1.14e+00,1.14e+00,4.72e-01,
202,1.04e-01,1.14e+00,1.14e+00,4.71e-01,
203,8.80e-02,1.14e+00,1.12e+00,4.74e-01,
204,1.04e-01,1.14e+00,1.13e+00,4.72e-01,
205,8.00e-02,1.14e+00,1.12e+00,4.76e-01,
206,8.80e-02,1.14e+00,1.12e+00,4.76e-01,
207,8.00e-02,1.14e+00,1.11e+00,4.73e-01,
208,8.80e-02,1.14e+00,1.12e+00,4.74e-01,
209,8.00e-02,1.14e+00,1.10e+00,4.72e-01,
210,8.80e-02,1.14e+00,1.10e+00,4.74e-01,
211,1.04e-01,1.14e+00,1.09e+00,4.71e-01,
212,1.04e-01,1.14e+00,1.10e+00,4.74e-01,
213,8.00e-02,1.14e+00,1.08e+00,4.70e-01,
214,1.04e-01,1.14e+00,1.09e+00,4.68e-01,
215,8.80e-02,1.14e+00,1.07e+00,4.71e-01,
216,1.04e-01,1.14e+00,1.08e+00,4.70e-01,
217,8.80e-02,1.14e+00,1.07e+00,4.73e-01,
218,1.04e-01,1.14e+00,1.08e+00,4.70e-01,
219,8.00e-02,1.14e+00,1.06e+00,4.74e-01,
220,8.80e-02,1.14e+00,1.06e+00,4.74e-01,
221,8.00e-02,1.14e+00,1.05e+00,4.70e-01,
222,8.00e-02,1.14e+00,1.06e+00,4.70e-01,
223,1.04e-01,1.14e+00,1.04e+00,4.74e-01,
224,8.80e-02,1.14e+00,1.05e+00,4.70e-01,
225,1.04e-01,1.14e+00,1.04e+00,4.74e-01,
226,1.04e-01,1.14e+00,1.04e+00,4.71e-01,
227,8.80e-02,1.14e+00,1.03e+00,4.68e-01,
228,1.04e-01,1.14e+00,1.04e+00,4.70e-01,
229,9.60e-02,1.14e+00,1.02e+00,4.74e-01,
230,1.04e-01,1.14e+00,1.03e+00,4.72e-01,
231,8.80e-02,1.14e+00,1.02e+00,4.74e-01,
232,9.60e-02,1.14e+00,1.02e+00,4.74e-01,
233,8.00e-02,1.14e+00,1.01e+00,4.70e-01,
234,8.80e-02,1.14e+00,1.02e+00,4.70e-01,
235,8.80e-02,1.14e+00,1.00e+00,4.74e-01,
236,8.80e-02,1.14e+00,1.01e+00,4.70e-01,
237,8.80e-02,1.14e+00,1.00e+00,4.74e-01,
238,8.80e-02,1.14e+00,1.01e+00,4.75e-01,
239,1.04e-01,1.14e+00,9.92e-01,4.70e-01,
240,1.04e-01,1.14e+00,1.00e+00,4.74e-01,
241,8.00e-02,1.14e+00,9.84e-01,4.70e-01,
242,1.04e-01,1.14e+00,9.92e-01,4.70e-01,
243,8.00e-02,1.14e+00,9.80e-01,4.72e-01,
244,1.04e-01,1.14e+00,9.88e-01,4.73e-01,
245,8.80e-02,1.14e+00,9.72e-01,4.68e-01,
246,8.80e-02,1.14e+00,9.84e-01,4.70e-01,
247,8.00e-02,1.14e+00,9.72e-01,4.65e-01,
248,8.00e-02,1.14e+00,9.76e-01,4.69e-01,
249,9.60e-02,1.14e+00,9.68e-01,4.65e-01,
250,8.80e-02,1.14e+00,9.72e-01,4.67e-01,
251,1.04e-01,1.14e+00,9.64e-01,4.64e-01,
252,1.04e-01,1.14e+00,9.68e-01,4.62e-01,
253,8.80e-02,1.14e+00,9.60e-01,4.66e-01,
254,8.80e-02,1.14e+00,9.64e-01,4.66e-01,
255,1.04e-01,1.14e+00,9.56e-01,4.62e-01,
256,1.04e-01,1.14e+00,9.60e-01,4.66e-01,
257,8.80e-02,1.14e+00,9.48e-01,4.62e-01,
258,1.04e-01,1.14e+00,9.56e-01,4.64e-01,
259,8.00e-02,1.14e+00,9.48e-01,4.69e-01,
260,8.80e-02,1.14e+00,9.52e-01,4.65e-01,
261,8.00e-02,1.14e+00,9.44e-01,4.69e-01,
262,8.00e-02,1.14e+00,9.48e-01,4.70e-01,
263,8.80e-02,1.14e+00,9.40e-01,4.65e-01,
264,8.00e-02,1.14e+00,9.48e-01,4.65e-01,
265,1.04e-01,1.14e+00,9.40e-01,4.69e-01,
266,8.80e-02,1.14e+00,9.44e-01,4.66e-01,
267,1.04e-01,1.14e+00,9.36e-01,4.70e-01,
268,9.60e-02,1.14e+00,9.36e-01,4.66e-01,
269,1.04e-01,1.14e+00,9.44e-01,4.69e-01,
270,9.60e-02,1.14e+00,9.40e-01,4.70e-01,
271,1.04e-01,1.14e+00,9.28e-01,4.66e-01,
272,1.04e-01,1.14e+00,9.40e-01,4.66e-01,
273,8.80e-02,1.14e+00,9.28e-01,4.70e-01,
274,8.80e-02,1.14e+00,9.32e-01,4.70e-01,
275,8.00e-02,1.14e+00,9.24e-01,4.65e-01,
276,8.80e-02,1.14e+00,9.32e-01,4.65e-01,
277,8.80e-02,1.14e+00,9.24e-01,4.70e-01,
278,8.80e-02,1.14e+00,9.32e-01,4.69e-01,
279,1.04e-01,1.14e+00,9.24e-01,4.65e-01,
280,1.04e-01,1.14e+00,9.28e-01,4.69e-01,
281,8.80e-02,1.14e+00,9.24e-01,4.66e-01,
282,1.04e-01,1.14e+00,9.28e-01,4.66e-01,
283,8.80e-02,1.14e+00,9.20e-01,4.69e-01,
284,1.04e-01,1.14e+00,9.28e-01,4.68e-01,
285,8.80e-02,1.14e+00,9.20e-01,4.63e-01,
286,9.60e-02,1.14e+00,9.20e-01,4.66e-01,
287,8.00e-02,1.14e+00,9.28e-01,4.62e-01,
288,8.80e-02,1.14e+00,9.28e-01,4.62e-01,
289,8.00e-02,1.14e+00,9.20e-01,4.68e-01,
290,9.60e-02,1.14e+00,9.28e-01,4.66e-01,
291,8.00e-02,1.14e+00,9.20e-01,4.62e-01,
292,8.00e-02,1.14e+00,9.28e-01,4.66e-01,
293,1.04e-01,1.14e+00,9.20e-01,4.63e-01,
294,8.00e-02,1.14e+00,9.20e-01,4.65e-01,
295,1.04e-01,1.14e+00,9.28e-01,4.66e-01,
296,8.80e-02,1.14e+00,9.20e-01,4.66e-01,
297,1.04e-01,1.14e+00,9.28e-01,4.62e-01,
298,1.04e-01,1.14e+00,9.28e-01,4.69e-01,
299,8.00e-02,1.14e+00,9.20e-01,4.62e-01,
300,8.80e-02,1.14e+00,9.20e-01,4.62e-01,
301,1.04e-01,1.14e+00,9.28e-01,4.66e-01,
302,8.80e-02,1.14e+00,9.28e-01,4.67e-01,
303,1.04e-01,1.14e+00,9.24e-01,4.62e-01,
304,9.60e-02,1.14e+00,9.20e-01,4.64e-01,
305,8.00e-02,1.14e+00,9.32e-01,4.58e-01,
306,8.00e-02,1.14e+00,9.24e-01,4.59e-01,
307,1.04e-01,1.14e+00,9.32e-01,4.54e-01,
308,8.80e-02,1.14e+00,9.24e-01,4.57e-01,
309,1.04e-01,1.14e+00,9.32e-01,4.53e-01,
310,1.04e-01,1.14e+00,9.32e-01,4.54e-01,
311,8.80e-02,1.14e+00,9.24e-01,4.48e-01,
312,1.04e-01,1.14e+00,9.28e-01,4.50e-01,
313,8.80e-02,1.14e+00,9.40e-01,4.45e-01,
314,1.04e-01,1.14e+00,9.40e-01,4.49e-01,
315,8.00e-02,1.14e+00,9.28e-01,4.42e-01,
316,8.80e-02,1.14e+00,9.36e-01,4.43e-01,
317,8.80e-02,1.14e+00,9.44e-01,4.37e-01,
318,8.80e-02,1.14e+00,9.36e-01,4.40e-01,
319,8.00e-02,1.14e+00,9.48e-01,4.35e-01,
320,8.80e-02,1.14e+00,9.40e-01,4.38e-01,
321,9.60e-02,1.14e+00,9.48e-01,4.34e-01,
322,8.80e-02,1.14e+00,9.40e-01,4.32e-01,
323,1.04e-01,1.14e+00,9.52e-01,4.37e-01,
324,8.80e-02,1.14e+00,9.48e-01,4.35e-01,
325,1.04e-01,1.14e+00,9.60e-01,4.32e-01,
326,1.04e-01,1.14e+00,9.52e-01,4.32e-01,
327,8.80e-02,1.14e+00,9.64e-01,4.35e-01,
328,8.80e-02,1.14e+00,9.56e-01,4.30e-01,
329,8.00e-02,1.14e+00,9.68e-01,4.34e-01,
330,8.80e-02,1.14e+00,9.60e-01,4.34e-01,
331,8.00e-02,1.14e+00,9.72e-01,4.30e-01,
332,8.80e-02,1.14e+00,9.64e-01,4.29e-01,
333,8.00e-02,1.14e+00,9.76e-01,4.32e-01,
334,8.00e-02,1.14e+00,9.68e-01,4.32e-01,
335,1.04e-01,1.14e+00,9.84e-01,4.29e-01,
336,1.04e-01,1.14e+00,9.72e-01,4.29e-01,
337,8.80e-02,1.14e+00,9.88e-01,4.32e-01,
338,1.04e-01,1.14e+00,9.84e-01,4.29e-01,
339,8.80e-02,1.14e+00,9.96e-01,4.32e-01,
340,1.04e-01,1.14e+00,9.88e-01,4.31e-01,
341,8.80e-02,1.14e+00,1.00e+00,4.28e-01,
342,1.04e-01,1.14e+00,1.00e+00,4.28e-01,
343,8.00e-02,1.14e+00,1.01e+00,4.31e-01,
344,8.80e-02,1.14e+00,1.00e+00,4.29e-01,
345,8.00e-02,1.14e+00,1.02e+00,4.32e-01,
346,8.80e-02,1.14e+00,1.01e+00,4.28e-01,
347,8.80e-02,1.14e+00,1.03e+00,4.32e-01,
348,8.80e-02,1.14e+00,1.02e+00,4.30e-01,
349,1.04e-01,1.14e+00,1.04e+00,4.33e-01,
350,8.00e-02,1.14e+00,1.03e+00,4.31e-01,
351,1.04e-01,1.14e+00,1.04e+00,5.16e-01,
352,8.80e-02,1.14e+00,1.04e+00,5.19e-01,
353,1.04e-01,1.14e+00,1.05e+00,5.46e-01,
354,1.04e-01,1.14e+00,1.05e+00,5.46e-01,
355,8.00e-02,1.14e+00,1.06e+00,5.46e-01,
356,9.60e-02,1.14e+00,1.06e+00,5.46e-01,
357,7.20e-02,1.14e+00,1.08e+00,5.46e-01,
358,8.80e-02,1.14e+00,1.07e+00,5.46e-01,
359,8.00e-02,1.14e+00,1.08e+00,5.46e-01,
360,8.80e-02,1.14e+00,1.08e+00,5.46e-01,
361,7.20e-02,1.14e+00,1.10e+00,5.46e-01,
362,8.00e-02,1.14e+00,1.09e+00,5.46e-01,
363,1.04e-01,1.14e+00,1.10e+00,5.46e-01,
364,8.80e-02,1.14e+00,1.10e+00,5.46e-01,
365,1.04e-01,1.14e+00,1.12e+00,5.46e-01,
366,8.80e-02,1.14e+00,1.11e+00,5.46e-01,
367,1.04e-01,1.14e+00,1.12e+00,5.46e-01,
368,1.04e-01,1.14e+00,1.12e+00,5.46e-01,
369,8.80e-02,1.14e+00,1.14e+00,5.46e-01,
370,8.80e-02,1.14e+00,1.13e+00,5.46e-01,
371,1.04e-01,1.14e+00,1.15e+00,5.46e-01,
372,8.80e-02,1.14e+00,1.14e+00,5.46e-01,
373,8.80e-02,1.14e+00,1.16e+00,5.46e-01,
374,8.80e-02,1.14e+00,1.16e+00,5.46e-01,
375,8.00e-02,1.14e+00,1.17e+00,5.46e-01,
376,8.80e-02,1.14e+00,1.16e+00,5.46e-01,
377,8.00e-02,1.14e+00,1.18e+00,5.46e-01,
378,1.04e-01,1.14e+00,1.18e+00,5.46e-01,
379,8.00e-02,1.14e+00,1.19e+00,5.46e-01,
380,8.80e-02,1.14e+00,1.18e+00,5.46e-01,
381,1.04e-01,1.14e+00,1.20e+00,5.46e-01,
382,8.00e-02,1.14e+00,1.20e+00,5.46e-01,
383,1.04e-01,1.14e+00,1.21e+00,5.46e-01,
384,8.80e-02,1.14e+00,1.20e+00,5.46e-01,
385,9.60e-02,1.14e+00,1.22e+00,5.46e-01,
386,8.80e-02,1.14e+00,1.22e+00,5.46e-01,
387,8.80e-02,1.14e+00,1.23e+00,5.46e-01,
388,8.00e-02,1.14e+00,1.22e+00,5.46e-01,
389,9.60e-02,1.14e+00,1.24e+00,5.46e-01,
390,8.80e-02,1.14e+00,1.23e+00,5.46e-01,
391,1.04e-01,1.14e+00,1.25e+00,5.46e-01,
392,1.04e-01,1.14e+00,1.24e+00,5.46e-01,
393,8.80e-02,1.14e+00,1.26e+00,5.46e-01,
394,1.04e-01,1.14e+00,1.25e+00,5.46e-01,
395,8.80e-02,1.14e+00,1.26e+00,5.46e-01,
396,8.00e-02,1.14e+00,1.26e+00,5.46e-01,
397,1.04e-01,1.14e+00,1.27e+00,5.14e-01,
398,1.04e-01,1.14e+00,1.26e+00,5.10e-01,
399,7.20e-02,1.14e+00,1.28e+00,3.42e-01,
400,8.80e-02,1.14e+00,1.27e+00,3.42e-01,
401,7.20e-02,1.14e+00,1.29e+00,3.42e-01,
402,8.80e-02,1.14e+00,1.28e+00,3.42e-01,
403,8.00e-02,1.14e+00,1.30e+00,3.42e-01,
404,8.00e-02,1.14e+00,1.30e+00,3.42e-01,
405,1.04e-01,1.14e+00,1.28e+00,3.42e-01,
406,1.04e-01,1.14e+00,1.28e+00,3.42e-01,
407,8.80e-02,1.14e+00,1.31e+00,3.42e-01,
408,1.04e-01,1.14e+00,1.31e+00,3.42e-01,
409,8.80e-02,1.14e+00,1.30e+00,3.42e-01,
410,1.04e-01,1.14e+00,1.31e+00,3.42e-01,
411,8.80e-02,1.14e+00,1.32e+00,3.42e-01,
412,9.60e-02,1.14e+00,1.31e+00,3.42e-01,
413,8.80e-02,1.14e+00,1.32e+00,3.42e-01,
414,8.80e-02,1.14e+00,1.31e+00,3.42e-01,
415,8.00e-02,1.14e+00,1.33e+00,3.42e-01,
416,8.80e-02,1.14e+00,1.32e+00,3.42e-01,
417,8.00e-02,1.14e+00,1.34e+00,3.42e-01,
418,8.00e-02,1.14e+00,1.34e+00,3.42e-01,
419,1.04e-01,1.14e+00,1.32e+00,3.42e-01,
420,1.04e-01,1.14e+00,1.32e+00,3.42e-01,
421,8.80e-02,1.14e+00,1.34e+00,3.64e-01,
422,1.04e-01,1.14e+00,1.33e+00,3.64e-01,
423,8.80e-02,1.14e+00,1.35e+00,4.05e-01,
424,1.04e-01,1.14e+00,1.35e+00,4.05e-01,
425,8.80e-02,1.14e+00,1.33e+00,4.46e-01,
426,1.04e-01,1.14e+00,1.33e+00,4.47e-01,
427,7.20e-02,1.14e+00,1.34e+00,5.46e-01,
428,8.80e-02,1.14e+00,1.34e+00,5.46e-01,
429,8.00e-02,1.14e+00,1.35e+00,5.46e-01,
430,8.80e-02,1.14e+00,1.35e+00,5.46e-01,
431,8.80e-02,1.14e+00,1.34e+00,5.46e-01,
432,8.80e-02,1.14e+00,1.35e+00,5.46e-01,
433,1.04e-01,1.14e+00,1.33e+00,5.46e-01,
434,1.04e-01,1.14e+00,1.33e+00,5.46e-01,
435,8.80e-02,1.14e+00,1.35e+00,5.46e-01,
436,1.04e-01,1.14e+00,1.35e+00,5.46e-01,
437,8.80e-02,1.14e+00,1.34e+00,4.96e-01,
438,1.04e-01,1.14e+00,1.35e+00,4.98e-01,
439,8.00e-02,1.14e+00,1.34e+00,4.94e-01,
440,8.80e-02,1.14e+00,1.34e+00,4.95e-01,
441,8.00e-02,1.14e+00,1.34e+00,4.87e-01,
442,8.00e-02,1.14e+00,1.34e+00,4.89e-01,
443,1.04e-01,1.14e+00,1.34e+00,4.80e-01,
444,8.00e-02,1.14e+00,1.34e+00,4.81e-01,
445,1.04e-01,1.14e+00,1.33e+00,4.72e-01,
446,1.04e-01,1.14e+00,1.33e+00,4.74e-01,
447,8.00e-02,1.14e+00,1.32e+00,4.66e-01,
448,8.80e-02,1.14e+00,1.32e+00,4.67e-01,
449,1.04e-01,1.14e+00,1.34e+00,4.62e-01,
450,1.04e-01,1.14e+00,1.33e+00,4.64e-01,
451,8.80e-02,1.14e+00,1.32e+00,4.58e-01,
452,1.04e-01,1.14e+00,1.32e+00,4.59e-01,
453,8.00e-02,1.14e+00,1.31e+00,4.55e-01,
454,8.00e-02,1.14e+00,1.32e+00,4.56e-01,
455,9.60e-02,1.14e+00,1.31e+00,4.48e-01,
456,8.80e-02,1.14e+00,1.31e+00,4.51e-01,
457,7.20e-02,1.14e+00,1.30e+00,4.46e-01,
458,8.80e-02,1.14e+00,1.30e+00,4.50e-01,
459,7.20e-02,1.14e+00,1.29e+00,4.46e-01,
460,8.00e-02,1.14e+00,1.30e+00,4.46e-01,
461,9.60e-02,1.14e+00,1.29e+00,4.52e-01,
462,8.80e-02,1.14e+00,1.29e+00,4.49e-01,
463,1.04e-01,1.14e+00,1.28e+00,4.54e-01,
464,8.80e-02,1.14e+00,1.28e+00,4.54e-01,
465,1.04e-01,1.14e+00,1.27e+00,4.50e-01,
466,8.00e-02,1.14e+00,1.28e+00,4.51e-01,
467,1.04e-01,1.14e+00,1.26e+00,4.54e-01,
468,8.80e-02,1.14e+00,1.26e+00,4.52e-01,
469,8.00e-02,1.14e+00,1.25e+00,4.54e-01,
470,8.80e-02,1.14e+00,1.26e+00,4.51e-01,
471,8.80e-02,1.14e+00,1.24e+00,4.55e-01,
472,8.80e-02,1.14e+00,1.25e+00,4.54e-01,
473,8.00e-02,1.14e+00,1.24e+00,4.57e-01,
474,8.80e-02,1.14e+00,1.24e+00,4.55e-01,
475,1.04e-01,1.14e+00,1.22e+00,4.58e-01,
476,1.04e-01,1.14e+00,1.23e+00,4.55e-01,
477,8.80e-02,1.14e+00,1.22e+00,4.60e-01,
478,1.04e-01,1.14e+00,1.22e+00,4.58e-01,
479,8.80e-02,1.14e+00,1.20e+00,4.61e-01,
480,1.04e-01,1.14e+00,1.21e+00,4.58e-01,
481,8.80e-02,1.14e+00,1.20e+00,4.62e-01,
482,8.80e-02,1.14e+00,1.20e+00,4.58e-01,
483,8.80e-02,1.14e+00,1.18e+00,4.63e-01,
484,8.80e-02,1.14e+00,1.19e+00,4.61e-01,
485,8.00e-02,1.14e+00,1.18e+00,4.66e-01,
486,8.80e-02,1.14e+00,1.18e+00,4.63e-01,
487,8.00e-02,1.14e+00,1.17e+00,4.68e-01,
