img/zar_data/NewFile21.csv

X,CH1,CH2,CH3,CH4,Start,Increment,
Sequence,Volt,Volt,Volt,Volt,-1.200000e-01,2.000000e-04
0,7.74e-03,3.92e+00,9.76e-01,2.30e-01,
1,5.16e-03,3.88e+00,9.72e-01,2.26e-01,
2,5.16e-03,3.92e+00,9.76e-01,2.30e-01,
3,7.74e-03,3.92e+00,9.68e-01,2.26e-01,
4,7.74e-03,3.92e+00,9.76e-01,2.26e-01,
5,5.16e-03,3.96e+00,9.68e-01,2.32e-01,
6,5.16e-03,3.92e+00,9.72e-01,2.32e-01,
7,7.74e-03,3.96e+00,9.60e-01,2.28e-01,
8,7.74e-03,3.96e+00,9.72e-01,2.30e-01,
9,5.16e-03,3.92e+00,9.60e-01,2.26e-01,
10,7.74e-03,3.96e+00,9.64e-01,2.30e-01,
11,5.16e-03,3.90e+00,9.56e-01,2.26e-01,
12,7.74e-03,3.96e+00,9.64e-01,2.30e-01,
13,5.16e-03,3.90e+00,9.56e-01,2.26e-01,
14,5.16e-03,3.92e+00,9.64e-01,2.30e-01,
15,7.74e-03,3.96e+00,9.56e-01,2.26e-01,
16,5.16e-03,3.92e+00,9.56e-01,2.30e-01,
17,7.74e-03,3.96e+00,9.64e-01,2.26e-01,
18,5.16e-03,3.92e+00,9.56e-01,2.30e-01,
19,7.74e-03,3.96e+00,9.60e-01,2.26e-01,
20,5.16e-03,3.96e+00,9.60e-01,2.30e-01,
21,7.74e-03,3.92e+00,9.52e-01,2.26e-01,
22,7.74e-03,3.96e+00,9.60e-01,2.26e-01,
23,4.30e-03,3.92e+00,9.52e-01,2.32e-01,
24,7.74e-03,3.96e+00,9.52e-01,2.30e-01,
25,4.30e-03,3.92e+00,9.60e-01,2.26e-01,
26,7.74e-03,3.96e+00,9.60e-01,2.30e-01,
27,5.16e-03,3.90e+00,9.52e-01,2.26e-01,
28,5.16e-03,3.96e+00,9.56e-01,2.30e-01,
29,7.74e-03,3.90e+00,9.48e-01,2.26e-01,
30,7.74e-03,3.90e+00,9.56e-01,2.30e-01,
31,5.16e-03,3.96e+00,9.48e-01,2.26e-01,
32,7.74e-03,3.96e+00,9.56e-01,2.26e-01,
33,5.16e-03,3.90e+00,9.48e-01,2.30e-01,
34,7.74e-03,3.96e+00,9.56e-01,2.26e-01,
35,4.30e-03,3.90e+00,9.48e-01,2.30e-01,
36,7.74e-03,3.92e+00,9.48e-01,2.30e-01,
37,4.30e-03,3.96e+00,9.56e-01,2.26e-01,
38,7.74e-03,3.96e+00,9.48e-01,2.26e-01,
39,5.16e-03,3.92e+00,9.56e-01,2.32e-01,
40,7.74e-03,3.96e+00,9.56e-01,2.30e-01,
41,5.16e-03,3.92e+00,9.48e-01,2.26e-01,
42,7.74e-03,3.96e+00,9.56e-01,2.30e-01,
43,5.16e-03,3.92e+00,9.48e-01,2.26e-01,
44,4.30e-03,3.96e+00,9.56e-01,2.30e-01,
45,7.74e-03,3.92e+00,9.48e-01,2.26e-01,
46,6.02e-03,3.96e+00,9.56e-01,2.32e-01,
47,7.74e-03,3.90e+00,9.52e-01,2.26e-01,
48,7.74e-03,3.96e+00,9.52e-01,2.26e-01,
49,5.16e-03,3.90e+00,9.60e-01,2.30e-01,
50,7.74e-03,3.90e+00,9.52e-01,2.30e-01,
51,5.16e-03,3.96e+00,9.60e-01,2.26e-01,
52,7.74e-03,3.90e+00,9.60e-01,2.26e-01,
53,5.16e-03,3.96e+00,9.52e-01,2.30e-01,
54,5.16e-03,3.94e+00,9.60e-01,2.26e-01,
55,7.74e-03,3.90e+00,9.52e-01,2.30e-01,
56,4.30e-03,3.92e+00,9.60e-01,2.30e-01,
57,7.74e-03,3.96e+00,9.52e-01,2.26e-01,
58,7.74e-03,3.92e+00,9.56e-01,2.26e-01,
59,4.30e-03,3.92e+00,9.64e-01,2.30e-01,
60,7.74e-03,3.92e+00,9.56e-01,2.30e-01,
61,5.16e-03,3.90e+00,9.64e-01,2.26e-01,
62,7.74e-03,3.92e+00,9.64e-01,2.26e-01,
63,5.16e-03,3.92e+00,9.56e-01,2.30e-01,
64,6.02e-03,3.92e+00,9.64e-01,2.26e-01,
65,7.74e-03,3.92e+00,9.60e-01,2.32e-01,
66,7.74e-03,3.92e+00,9.60e-01,2.26e-01,
67,4.30e-03,3.92e+00,9.72e-01,2.32e-01,
68,7.74e-03,3.92e+00,9.68e-01,2.32e-01,
69,4.30e-03,3.90e+00,9.76e-01,2.26e-01,
70,7.74e-03,3.92e+00,9.68e-01,2.26e-01,
71,4.30e-03,3.90e+00,9.76e-01,2.32e-01,
72,7.74e-03,3.92e+00,9.68e-01,2.26e-01,
73,4.30e-03,3.90e+00,9.80e-01,2.32e-01,
74,7.74e-03,3.92e+00,9.72e-01,2.26e-01,
75,5.16e-03,3.90e+00,9.80e-01,2.32e-01,
76,7.74e-03,3.92e+00,9.80e-01,2.30e-01,
77,4.30e-03,3.88e+00,9.72e-01,2.28e-01,
78,7.74e-03,3.92e+00,9.76e-01,2.32e-01,
79,5.16e-03,3.88e+00,9.84e-01,2.26e-01,
80,7.74e-03,3.92e+00,9.80e-01,2.30e-01,
81,5.16e-03,3.88e+00,9.88e-01,2.26e-01,
82,7.74e-03,3.92e+00,9.84e-01,2.26e-01,
83,4.30e-03,3.88e+00,9.96e-01,2.32e-01,
84,7.74e-03,3.92e+00,9.88e-01,2.30e-01,
85,4.30e-03,3.88e+00,1.00e+00,2.26e-01,
86,7.74e-03,3.92e+00,9.92e-01,2.28e-01,
87,5.16e-03,3.88e+00,1.00e+00,2.32e-01,
88,7.74e-03,3.88e+00,9.96e-01,2.26e-01,
89,5.16e-03,3.92e+00,1.00e+00,2.32e-01,
90,7.74e-03,3.88e+00,9.96e-01,2.30e-01,
91,4.30e-03,3.92e+00,1.01e+00,2.26e-01,
92,7.74e-03,3.88e+00,1.00e+00,2.28e-01,
93,4.30e-03,3.92e+00,1.02e+00,2.32e-01,
94,7.74e-03,3.88e+00,1.01e+00,2.30e-01,
95,4.30e-03,3.90e+00,1.02e+00,2.26e-01,
96,4.30e-03,3.88e+00,1.02e+00,2.28e-01,
97,7.74e-03,3.90e+00,1.02e+00,2.32e-01,
98,7.74e-03,3.88e+00,1.02e+00,2.28e-01,
99,4.30e-03,3.90e+00,1.03e+00,2.32e-01,
100,7.74e-03,3.88e+00,1.03e+00,2.30e-01,
101,4.30e-03,3.90e+00,1.04e+00,2.26e-01,
102,5.16e-03,3.90e+00,1.04e+00,2.30e-01,
103,7.74e-03,3.88e+00,1.04e+00,2.26e-01,
104,5.16e-03,3.88e+00,1.04e+00,2.30e-01,
105,7.74e-03,3.90e+00,1.05e+00,2.28e-01,
106,6.02e-03,3.90e+00,1.05e+00,2.30e-01,
107,7.74e-03,3.88e+00,1.06e+00,2.26e-01,
108,5.16e-03,3.90e+00,1.06e+00,2.30e-01,
109,7.74e-03,3.88e+00,1.07e+00,2.26e-01,
110,7.74e-03,3.90e+00,1.06e+00,2.26e-01,
111,4.30e-03,3.88e+00,1.07e+00,2.30e-01,
112,7.74e-03,3.90e+00,1.07e+00,2.26e-01,
113,5.16e-03,3.88e+00,1.08e+00,2.32e-01,
114,7.74e-03,3.88e+00,1.08e+00,2.28e-01,
115,5.16e-03,3.90e+00,1.09e+00,2.32e-01,
116,5.16e-03,3.90e+00,1.08e+00,2.32e-01,
117,7.74e-03,3.86e+00,1.10e+00,2.26e-01,
118,4.30e-03,3.90e+00,1.09e+00,2.26e-01,
119,7.74e-03,3.86e+00,1.10e+00,2.32e-01,
120,5.16e-03,3.90e+00,1.10e+00,2.28e-01,
121,7.74e-03,3.84e+00,1.11e+00,2.32e-01,
122,5.16e-03,3.86e+00,1.11e+00,2.30e-01,
123,7.74e-03,3.90e+00,1.12e+00,2.26e-01,
124,5.16e-03,3.90e+00,1.11e+00,2.28e-01,
125,7.74e-03,3.84e+00,1.12e+00,2.32e-01,
126,7.74e-03,3.90e+00,1.12e+00,2.28e-01,
127,5.16e-03,3.84e+00,1.14e+00,2.32e-01,
128,4.30e-03,3.90e+00,1.13e+00,2.32e-01,
129,7.74e-03,3.84e+00,1.14e+00,2.28e-01,
130,7.74e-03,3.84e+00,1.14e+00,2.28e-01,
131,4.30e-03,3.90e+00,1.16e+00,2.32e-01,
132,7.74e-03,3.86e+00,1.15e+00,2.32e-01,
133,4.30e-03,3.84e+00,1.16e+00,2.28e-01,
134,4.30e-03,3.86e+00,1.16e+00,2.32e-01,
135,7.74e-03,3.84e+00,1.17e+00,2.28e-01,
136,5.16e-03,3.90e+00,1.16e+00,2.28e-01,
137,7.74e-03,3.84e+00,1.18e+00,2.32e-01,
138,7.74e-03,3.90e+00,1.17e+00,2.32e-01,
139,4.30e-03,3.84e+00,1.18e+00,2.28e-01,
140,7.74e-03,3.84e+00,1.18e+00,2.32e-01,
141,5.16e-03,3.90e+00,1.20e+00,2.28e-01,
142,6.88e-03,3.90e+00,1.19e+00,2.32e-01,
143,4.30e-03,3.84e+00,1.20e+00,2.28e-01,
144,5.16e-03,3.86e+00,1.20e+00,2.28e-01,
145,7.74e-03,3.84e+00,1.21e+00,2.32e-01,
146,7.74e-03,3.86e+00,1.20e+00,2.28e-01,
147,5.16e-03,3.84e+00,1.22e+00,2.32e-01,
148,7.74e-03,3.86e+00,1.22e+00,2.28e-01,
149,4.30e-03,3.84e+00,1.23e+00,2.32e-01,
150,4.30e-03,3.86e+00,1.22e+00,2.32e-01,
151,7.74e-03,3.84e+00,1.23e+00,2.28e-01,
152,4.30e-03,3.86e+00,1.23e+00,2.28e-01,
153,7.74e-03,3.84e+00,1.24e+00,2.32e-01,
154,7.74e-03,3.86e+00,1.24e+00,2.28e-01,
155,4.30e-03,3.86e+00,1.25e+00,2.32e-01,
156,4.30e-03,3.86e+00,1.24e+00,2.28e-01,
157,6.88e-03,3.84e+00,1.26e+00,2.32e-01,
158,7.74e-03,3.86e+00,1.25e+00,2.28e-01,
159,4.30e-03,3.84e+00,1.27e+00,2.32e-01,
160,5.16e-03,3.86e+00,1.26e+00,2.32e-01,
161,7.74e-03,3.84e+00,1.27e+00,2.28e-01,
162,7.74e-03,3.86e+00,1.27e+00,2.28e-01,
163,4.30e-03,3.84e+00,1.28e+00,2.32e-01,
164,5.16e-03,3.86e+00,1.28e+00,2.32e-01,
165,7.74e-03,3.84e+00,1.29e+00,2.28e-01,
166,7.74e-03,3.86e+00,1.28e+00,2.32e-01,
167,4.30e-03,3.82e+00,1.30e+00,2.28e-01,
168,7.74e-03,3.86e+00,1.29e+00,2.32e-01,
169,4.30e-03,3.84e+00,1.30e+00,2.28e-01,
170,7.74e-03,3.90e+00,1.30e+00,2.32e-01,
171,5.16e-03,3.84e+00,1.31e+00,2.28e-01,
172,7.74e-03,3.86e+00,1.30e+00,2.28e-01,
173,5.16e-03,3.90e+00,1.32e+00,2.32e-01,
174,4.30e-03,3.90e+00,1.31e+00,2.32e-01,
175,7.74e-03,3.86e+00,1.32e+00,2.28e-01,
176,7.74e-03,3.90e+00,1.32e+00,2.30e-01,
177,5.16e-03,3.84e+00,1.33e+00,2.40e-01,
178,7.74e-03,3.90e+00,1.32e+00,2.40e-01,
179,4.30e-03,3.84e+00,1.34e+00,4.46e-01,
180,5.16e-03,3.84e+00,1.33e+00,4.52e-01,
181,6.88e-03,3.90e+00,1.34e+00,6.46e-01,
182,7.74e-03,3.86e+00,1.33e+00,6.46e-01,
183,4.30e-03,3.84e+00,1.34e+00,6.46e-01,
184,7.74e-03,3.86e+00,1.34e+00,6.46e-01,
185,4.30e-03,3.84e+00,1.35e+00,6.46e-01,
186,7.74e-03,3.84e+00,1.34e+00,6.46e-01,
187,4.30e-03,3.90e+00,1.36e+00,6.46e-01,
188,7.74e-03,3.90e+00,1.35e+00,6.46e-01,
189,4.30e-03,3.84e+00,1.36e+00,6.46e-01,
190,4.30e-03,3.90e+00,1.36e+00,6.46e-01,
191,7.74e-03,3.84e+00,1.36e+00,6.46e-01,
192,7.74e-03,3.90e+00,1.36e+00,6.46e-01,
193,4.30e-03,3.84e+00,1.37e+00,6.46e-01,
194,7.74e-03,3.88e+00,1.37e+00,6.46e-01,
195,5.16e-03,3.84e+00,1.36e+00,6.46e-01,
196,4.30e-03,3.86e+00,1.37e+00,6.46e-01,
197,7.74e-03,3.84e+00,1.38e+00,6.46e-01,
198,5.16e-03,3.84e+00,1.37e+00,6.46e-01,
199,7.74e-03,3.90e+00,1.38e+00,6.46e-01,
200,7.74e-03,3.86e+00,1.37e+00,6.46e-01,
201,4.30e-03,3.90e+00,1.38e+00,6.46e-01,
202,7.74e-03,3.90e+00,1.38e+00,6.46e-01,
203,4.30e-03,3.84e+00,1.38e+00,6.46e-01,
204,7.74e-03,3.88e+00,1.38e+00,6.46e-01,
205,4.30e-03,3.90e+00,1.39e+00,6.46e-01,
206,5.16e-03,3.88e+00,1.39e+00,6.46e-01,
207,7.74e-03,3.90e+00,1.38e+00,6.46e-01,
208,7.74e-03,3.90e+00,1.38e+00,6.46e-01,
209,4.30e-03,3.88e+00,1.39e+00,6.46e-01,
210,5.16e-03,3.88e+00,1.39e+00,6.46e-01,
211,7.74e-03,3.90e+00,1.38e+00,6.46e-01,
212,4.30e-03,3.90e+00,1.39e+00,6.46e-01,
213,7.74e-03,3.86e+00,1.38e+00,6.46e-01,
214,5.16e-03,3.86e+00,1.38e+00,6.46e-01,
215,7.74e-03,3.90e+00,1.40e+00,5.64e-01,
216,5.16e-03,3.90e+00,1.40e+00,5.62e-01,
217,7.74e-03,3.86e+00,1.39e+00,4.18e-01,
218,5.16e-03,3.90e+00,1.39e+00,4.16e-01,
219,6.88e-03,3.86e+00,1.38e+00,2.90e-01,
220,7.74e-03,3.88e+00,1.38e+00,2.92e-01,
221,5.16e-03,3.90e+00,1.39e+00,1.90e-01,
222,4.30e-03,3.90e+00,1.40e+00,1.90e-01,
223,7.74e-03,3.86e+00,1.38e+00,1.36e-01,
224,7.74e-03,3.88e+00,1.39e+00,1.36e-01,
225,4.30e-03,3.90e+00,1.38e+00,1.36e-01,
226,4.30e-03,3.90e+00,1.38e+00,1.36e-01,
227,7.74e-03,3.86e+00,1.39e+00,1.36e-01,
228,7.74e-03,3.90e+00,1.38e+00,1.36e-01,
229,5.16e-03,3.86e+00,1.38e+00,1.36e-01,
230,7.74e-03,3.90e+00,1.38e+00,1.36e-01,
231,4.30e-03,3.86e+00,1.37e+00,1.36e-01,
232,4.30e-03,3.90e+00,1.38e+00,1.36e-01,
233,7.74e-03,3.86e+00,1.37e+00,1.36e-01,
234,7.74e-03,3.90e+00,1.38e+00,1.36e-01,
235,5.16e-03,3.88e+00,1.37e+00,1.36e-01,
236,4.30e-03,3.88e+00,1.38e+00,1.36e-01,
237,7.74e-03,3.90e+00,1.36e+00,1.36e-01,
238,7.74e-03,3.88e+00,1.37e+00,1.36e-01,
239,4.30e-03,3.90e+00,1.36e+00,1.36e-01,
240,5.16e-03,3.90e+00,1.36e+00,1.36e-01,
241,7.74e-03,3.88e+00,1.35e+00,1.58e-01,
242,5.16e-03,3.90e+00,1.36e+00,1.58e-01,
243,7.74e-03,3.88e+00,1.35e+00,1.86e-01,
244,7.74e-03,3.90e+00,1.35e+00,1.86e-01,
245,5.16e-03,3.88e+00,1.34e+00,2.14e-01,
246,7.74e-03,3.90e+00,1.34e+00,2.12e-01,
247,5.16e-03,3.88e+00,1.34e+00,2.32e-01,
248,7.74e-03,3.90e+00,1.34e+00,2.32e-01,
249,5.16e-03,3.84e+00,1.33e+00,2.48e-01,
250,7.74e-03,3.86e+00,1.34e+00,2.46e-01,
251,4.30e-03,3.90e+00,1.32e+00,2.58e-01,
252,5.16e-03,3.88e+00,1.33e+00,2.58e-01,
253,7.74e-03,3.90e+00,1.31e+00,2.66e-01,
254,7.74e-03,3.88e+00,1.32e+00,2.64e-01,
255,4.30e-03,3.90e+00,1.31e+00,2.70e-01,
256,7.74e-03,3.90e+00,1.32e+00,2.66e-01,
257,5.16e-03,3.86e+00,1.30e+00,2.70e-01,
258,7.74e-03,3.90e+00,1.31e+00,2.70e-01,
259,5.16e-03,3.86e+00,1.29e+00,2.64e-01,
260,5.16e-03,3.90e+00,1.30e+00,2.68e-01,
261,6.88e-03,3.86e+00,1.29e+00,2.60e-01,
262,7.74e-03,3.90e+00,1.30e+00,2.62e-01,
263,4.30e-03,3.84e+00,1.28e+00,2.54e-01,
264,4.30e-03,3.86e+00,1.28e+00,2.56e-01,
265,7.74e-03,3.90e+00,1.27e+00,2.50e-01,
266,4.30e-03,3.90e+00,1.28e+00,2.52e-01,
267,7.74e-03,3.86e+00,1.26e+00,2.46e-01,
268,7.74e-03,3.88e+00,1.27e+00,2.46e-01,
269,4.30e-03,3.90e+00,1.26e+00,2.38e-01,
270,6.88e-03,3.90e+00,1.26e+00,2.40e-01,
271,4.30e-03,3.88e+00,1.25e+00,2.34e-01,
272,7.74e-03,3.88e+00,1.26e+00,2.36e-01,
273,4.30e-03,3.90e+00,1.24e+00,2.30e-01,
274,4.30e-03,3.90e+00,1.25e+00,2.32e-01,
275,7.74e-03,3.88e+00,1.24e+00,2.26e-01,
276,5.16e-03,3.90e+00,1.24e+00,2.28e-01,
277,7.74e-03,3.88e+00,1.23e+00,2.24e-01,
278,7.74e-03,3.90e+00,1.23e+00,2.28e-01,
279,5.16e-03,3.88e+00,1.22e+00,2.22e-01,
280,7.74e-03,3.88e+00,1.22e+00,2.22e-01,
281,5.16e-03,3.90e+00,1.21e+00,2.26e-01,
282,7.74e-03,3.90e+00,1.22e+00,2.22e-01,
283,4.30e-03,3.86e+00,1.20e+00,2.26e-01,
284,7.74e-03,3.90e+00,1.21e+00,2.22e-01,
285,5.16e-03,3.88e+00,1.20e+00,2.26e-01,
286,7.74e-03,3.88e+00,1.20e+00,2.26e-01,
287,4.30e-03,3.90e+00,1.18e+00,2.22e-01,
288,7.74e-03,3.88e+00,1.20e+00,2.26e-01,
289,5.16e-03,3.90e+00,1.18e+00,2.22e-01,
290,5.16e-03,3.88e+00,1.18e+00,2.22e-01,
291,7.74e-03,3.90e+00,1.18e+00,2.28e-01,
292,7.74e-03,3.90e+00,1.18e+00,2.24e-01,
293,4.30e-03,3.86e+00,1.17e+00,2.28e-01,
294,7.74e-03,3.90e+00,1.17e+00,2.24e-01,
295,5.16e-03,3.86e+00,1.16e+00,2.28e-01,
296,5.16e-03,3.90e+00,1.16e+00,2.26e-01,
297,7.74e-03,3.86e+00,1.15e+00,2.30e-01,
298,7.74e-03,3.88e+00,1.16e+00,2.30e-01,
299,5.16e-03,3.90e+00,1.14e+00,2.26e-01,
300,5.16e-03,3.88e+00,1.15e+00,2.30e-01,
301,7.74e-03,3.92e+00,1.14e+00,2.26e-01,
302,7.74e-03,3.88e+00,1.14e+00,2.28e-01,
303,5.16e-03,3.92e+00,1.13e+00,2.32e-01,
304,4.30e-03,3.92e+00,1.14e+00,2.32e-01,
305,7.74e-03,3.88e+00,1.12e+00,2.28e-01,
306,7.74e-03,3.88e+00,1.13e+00,2.32e-01,
307,5.16e-03,3.90e+00,1.12e+00,2.28e-01,
308,4.30e-03,3.90e+00,1.12e+00,2.28e-01,
309,7.74e-03,3.88e+00,1.11e+00,2.32e-01,
310,4.30e-03,3.90e+00,1.12e+00,2.28e-01,
311,7.74e-03,3.88e+00,1.10e+00,2.32e-01,
312,4.30e-03,3.90e+00,1.11e+00,2.28e-01,
313,7.74e-03,3.88e+00,1.10e+00,2.32e-01,
314,5.16e-03,3.90e+00,1.10e+00,2.32e-01,
315,6.88e-03,3.88e+00,1.09e+00,2.28e-01,
316,7.74e-03,3.88e+00,1.09e+00,2.28e-01,
317,4.30e-03,3.92e+00,1.08e+00,2.32e-01,
318,5.16e-03,3.92e+00,1.09e+00,2.28e-01,
319,7.74e-03,3.88e+00,1.08e+00,2.32e-01,
320,5.16e-03,3.92e+00,1.08e+00,2.30e-01,
321,7.74e-03,3.88e+00,1.07e+00,2.26e-01,
322,5.16e-03,3.88e+00,1.07e+00,2.30e-01,
323,7.74e-03,3.92e+00,1.06e+00,2.26e-01,
324,5.16e-03,3.88e+00,1.07e+00,2.30e-01,
325,7.74e-03,3.92e+00,1.06e+00,2.26e-01,
326,6.88e-03,3.92e+00,1.06e+00,2.30e-01,
327,5.16e-03,3.88e+00,1.05e+00,2.26e-01,
328,5.16e-03,3.88e+00,1.06e+00,2.30e-01,
329,7.74e-03,3.92e+00,1.04e+00,2.26e-01,
330,7.74e-03,3.92e+00,1.05e+00,2.26e-01,
331,4.30e-03,3.88e+00,1.04e+00,2.30e-01,
332,7.74e-03,3.92e+00,1.04e+00,2.30e-01,
333,5.16e-03,3.88e+00,1.04e+00,2.26e-01,
334,4.30e-03,3.92e+00,1.04e+00,2.30e-01,
335,7.74e-03,3.92e+00,1.03e+00,2.26e-01,
336,5.16e-03,3.92e+00,1.03e+00,2.30e-01,
337,7.74e-03,3.90e+00,1.02e+00,2.26e-01,
338,7.74e-03,3.92e+00,1.03e+00,2.26e-01,
339,4.30e-03,3.90e+00,1.02e+00,2.30e-01,
340,5.16e-03,3.92e+00,1.02e+00,2.30e-01,
341,7.74e-03,3.90e+00,1.02e+00,2.26e-01,
342,5.16e-03,3.92e+00,1.02e+00,2.26e-01,
343,7.74e-03,3.90e+00,1.01e+00,2.32e-01,
344,7.74e-03,3.92e+00,1.02e+00,2.32e-01,
345,5.16e-03,3.90e+00,1.00e+00,2.28e-01,
346,4.30e-03,3.92e+00,1.01e+00,2.30e-01,
347,7.74e-03,3.92e+00,1.00e+00,2.26e-01,
348,7.74e-03,3.92e+00,1.01e+00,2.30e-01,
349,5.16e-03,3.96e+00,1.00e+00,2.26e-01,
350,7.74e-03,3.92e+00,9.96e-01,2.30e-01,
351,5.16e-03,3.96e+00,1.00e+00,2.26e-01,
352,7.74e-03,3.96e+00,1.00e+00,2.28e-01,
353,5.16e-03,3.92e+00,9.92e-01,2.32e-01,
354,7.74e-03,3.92e+00,1.00e+00,2.30e-01,
355,5.16e-03,3.96e+00,9.92e-01,2.28e-01,
356,7.74e-03,3.96e+00,9.84e-01,2.30e-01,
357,5.16e-03,3.90e+00,9.96e-01,2.26e-01,
358,4.30e-03,3.92e+00,9.88e-01,2.26e-01,
359,7.74e-03,3.90e+00,9.80e-01,2.32e-01,
360,5.16e-03,3.90e+00,9.88e-01,2.30e-01,
361,7.74e-03,3.96e+00,9.80e-01,2.26e-01,
362,5.16e-03,3.92e+00,9.84e-01,2.30e-01,
363,7.74e-03,3.96e+00,9.76e-01,2.26e-01,
364,7.74e-03,3.96e+00,9.84e-01,2.30e-01,
365,5.16e-03,3.92e+00,9.72e-01,2.26e-01,
366,5.16e-03,3.94e+00,9.80e-01,2.26e-01,
367,7.74e-03,3.98e+00,9.72e-01,2.32e-01,
368,7.74e-03,3.94e+00,9.76e-01,2.30e-01,
369,4.30e-03,3.96e+00,9.68e-01,2.26e-01,
370,6.02e-03,3.96e+00,9.76e-01,2.30e-01,
371,7.74e-03,3.94e+00,9.68e-01,2.26e-01,
372,7.74e-03,3.94e+00,9.68e-01,2.32e-01,
373,4.30e-03,3.96e+00,9.76e-01,2.26e-01,
374,7.74e-03,3.96e+00,9.72e-01,2.32e-01,
375,5.16e-03,3.94e+00,9.64e-01,2.26e-01,
376,6.02e-03,3.96e+00,9.72e-01,2.30e-01,
377,7.74e-03,3.94e+00,9.60e-01,2.26e-01,
378,5.16e-03,3.94e+00,9.68e-01,2.30e-01,
379,7.74e-03,3.96e+00,9.56e-01,2.26e-01,
380,7.74e-03,3.94e+00,9.64e-01,2.26e-01,
381,5.16e-03,3.98e+00,9.56e-01,2.30e-01,
382,7.74e-03,3.94e+00,9.64e-01,2.30e-01,
383,4.30e-03,4.00e+00,9.56e-01,2.26e-01,
384,5.16e-03,3.94e+00,9.60e-01,2.30e-01,
385,7.74e-03,3.98e+00,9.56e-01,2.26e-01,
386,7.74e-03,3.94e+00,9.56e-01,2.30e-01,
387,5.16e-03,3.96e+00,9.60e-01,2.26e-01,
388,7.74e-03,3.96e+00,9.60e-01,2.26e-01,
389,5.16e-03,3.94e+00,9.52e-01,2.30e-01,
390,7.74e-03,3.94e+00,9.52e-01,2.30e-01,
391,5.16e-03,3.96e+00,9.60e-01,2.26e-01,
392,7.74e-03,3.94e+00,9.52e-01,2.26e-01,
393,4.30e-03,3.96e+00,9.56e-01,2.30e-01,
394,7.74e-03,3.94e+00,9.52e-01,2.26e-01,
395,5.16e-03,4.00e+00,9.56e-01,2.30e-01,
396,7.74e-03,3.94e+00,9.52e-01,2.30e-01,
397,5.16e-03,4.00e+00,9.60e-01,2.26e-01,
398,6.02e-03,4.00e+00,9.60e-01,2.30e-01,
399,7.74e-03,3.94e+00,9.48e-01,2.26e-01,
400,7.74e-03,4.00e+00,9.56e-01,2.30e-01,
401,4.30e-03,3.94e+00,9.48e-01,2.26e-01,
402,7.74e-03,3.94e+00,9.56e-01,2.30e-01,
403,5.16e-03,4.00e+00,9.48e-01,2.26e-01,
404,7.74e-03,3.94e+00,9.48e-01,2.30e-01,
405,5.16e-03,3.98e+00,9.56e-01,2.26e-01,
406,5.16e-03,3.94e+00,9.56e-01,2.30e-01,
407,7.74e-03,3.98e+00,9.48e-01,2.28e-01,
408,7.74e-03,3.94e+00,9.56e-01,2.30e-01,
409,5.16e-03,3.96e+00,9.48e-01,2.26e-01,
410,7.74e-03,3.96e+00,9.56e-01,2.26e-01,
411,5.16e-03,3.94e+00,9.52e-01,2.32e-01,
412,5.16e-03,3.96e+00,9.56e-01,2.26e-01,
413,7.74e-03,3.94e+00,9.48e-01,2.32e-01,
414,7.74e-03,3.96e+00,9.56e-01,2.30e-01,
415,5.16e-03,3.94e+00,9.48e-01,2.26e-01,
416,7.74e-03,3.94e+00,9.52e-01,2.30e-01,
417,5.16e-03,3.96e+00,9.60e-01,2.26e-01,
418,7.74e-03,3.96e+00,9.52e-01,2.30e-01,
419,5.16e-03,3.94e+00,9.60e-01,2.26e-01,
420,7.74e-03,3.94e+00,9.52e-01,2.26e-01,
421,4.30e-03,3.96e+00,9.60e-01,2.30e-01,
422,6.02e-03,3.96e+00,9.60e-01,2.30e-01,
423,7.74e-03,3.90e+00,9.52e-01,2.26e-01,
424,7.74e-03,3.96e+00,9.60e-01,2.30e-01,
425,5.16e-03,3.92e+00,9.52e-01,2.26e-01,
426,4.30e-03,3.96e+00,9.60e-01,2.30e-01,
427,7.74e-03,3.92e+00,9.56e-01,2.26e-01,
428,7.74e-03,3.94e+00,9.56e-01,2.30e-01,
429,5.16e-03,3.96e+00,9.64e-01,2.26e-01,
430,7.74e-03,3.96e+00,9.64e-01,2.26e-01,
431,4.30e-03,3.94e+00,9.56e-01,2.30e-01,
432,5.16e-03,3.96e+00,9.60e-01,2.28e-01,
433,7.74e-03,3.92e+00,9.68e-01,2.32e-01,
434,6.02e-03,3.96e+00,9.60e-01,2.32e-01,
435,7.74e-03,3.92e+00,9.72e-01,2.26e-01,
436,7.74e-03,3.92e+00,9.60e-01,2.28e-01,
437,5.16e-03,3.96e+00,9.72e-01,2.30e-01,
438,7.74e-03,3.96e+00,9.68e-01,2.26e-01,
439,5.16e-03,3.90e+00,9.76e-01,2.32e-01,
440,7.74e-03,3.92e+00,9.76e-01,2.30e-01,
441,5.16e-03,3.96e+00,9.68e-01,2.26e-01,
442,7.74e-03,3.92e+00,9.72e-01,2.30e-01,
443,5.16e-03,3.94e+00,9.80e-01,2.28e-01,
444,7.74e-03,3.92e+00,9.72e-01,2.28e-01,
445,4.30e-03,3.92e+00,9.84e-01,2.32e-01,
446,5.16e-03,3.92e+00,9.84e-01,2.32e-01,
447,7.74e-03,3.90e+00,9.76e-01,2.26e-01,
448,7.74e-03,3.90e+00,9.80e-01,2.30e-01,
449,4.30e-03,3.92e+00,9.88e-01,2.26e-01,
450,5.16e-03,3.92e+00,9.84e-01,2.26e-01,
451,7.74e-03,3.90e+00,9.96e-01,2.32e-01,
452,4.30e-03,3.92e+00,9.88e-01,2.30e-01,
453,7.74e-03,3.90e+00,1.00e+00,2.26e-01,
454,5.16e-03,3.92e+00,9.92e-01,2.32e-01,
455,7.74e-03,3.90e+00,1.00e+00,2.26e-01,
456,6.88e-03,3.92e+00,9.96e-01,2.26e-01,
457,4.30e-03,3.88e+00,1.01e+00,2.32e-01,
458,7.74e-03,3.92e+00,1.00e+00,2.26e-01,
459,5.16e-03,3.88e+00,1.02e+00,2.32e-01,
460,7.74e-03,3.92e+00,1.01e+00,2.32e-01,
461,5.16e-03,3.88e+00,1.02e+00,2.28e-01,
462,4.30e-03,3.92e+00,1.01e+00,2.30e-01,
463,7.74e-03,3.88e+00,1.02e+00,2.26e-01,
464,7.74e-03,3.92e+00,1.02e+00,2.28e-01,
465,5.16e-03,3.88e+00,1.03e+00,2.32e-01,
466,5.16e-03,3.92e+00,1.02e+00,2.28e-01,
467,7.74e-03,3.88e+00,1.03e+00,2.32e-01,
468,5.16e-03,3.92e+00,1.03e+00,2.30e-01,
469,7.74e-03,3.88e+00,1.04e+00,2.26e-01,
470,7.74e-03,3.88e+00,1.04e+00,2.30e-01,
471,5.16e-03,3.92e+00,1.05e+00,2.26e-01,
472,7.74e-03,3.88e+00,1.04e+00,2.26e-01,
473,4.30e-03,3.92e+00,1.05e+00,2.32e-01,
474,7.74e-03,3.90e+00,1.05e+00,2.28e-01,
475,5.16e-03,3.88e+00,1.06e+00,2.30e-01,
476,5.16e-03,3.88e+00,1.06e+00,2.30e-01,
477,7.74e-03,3.90e+00,1.07e+00,2.26e-01,
478,7.74e-03,3.88e+00,1.06e+00,2.30e-01,
479,5.16e-03,3.90e+00,1.07e+00,2.26e-01,
480,7.74e-03,3.90e+00,1.07e+00,2.26e-01,
481,5.16e-03,3.88e+00,1.08e+00,2.32e-01,
482,7.74e-03,3.90e+00,1.08e+00,2.32e-01,
483,4.30e-03,3.88e+00,1.09e+00,2.26e-01,
484,5.16e-03,3.88e+00,1.08e+00,2.32e-01,
485,7.74e-03,3.90e+00,1.10e+00,2.28e-01,
486,4.30e-03,3.88e+00,1.09e+00,2.26e-01,
487,7.74e-03,3.90e+00,1.10e+00,2.32e-01,
